EESchema Schematic File Version 4
EELAYER 30 0
EELAYER END
$Descr A4 11693 8268
encoding utf-8
Sheet 4 6
Title ""
Date ""
Rev ""
Comp ""
Comment1 ""
Comment2 ""
Comment3 ""
Comment4 ""
$EndDescr
$Comp
L Device:Q_NMOS_DGS Q?
U 1 1 6055BA23
P 2400 2800
AR Path="/6055BA23" Ref="Q?"  Part="1" 
AR Path="/604E1E00/6055BA23" Ref="Q?"  Part="1" 
AR Path="/6055837D/6055BA23" Ref="Q3"  Part="1" 
F 0 "Q3" H 2604 2846 50  0000 L CNN
F 1 "IRLML6346" H 2604 2755 50  0000 L CNN
F 2 "Package_TO_SOT_SMD:SOT-23" H 2600 2900 50  0001 C CNN
F 3 "~" H 2400 2800 50  0001 C CNN
	1    2400 2800
	1    0    0    -1  
$EndComp
$Comp
L Device:R R?
U 1 1 6055BA29
P 2100 2950
AR Path="/6055BA29" Ref="R?"  Part="1" 
AR Path="/604E1E00/6055BA29" Ref="R?"  Part="1" 
AR Path="/6055837D/6055BA29" Ref="R12"  Part="1" 
F 0 "R12" H 2170 2996 50  0000 L CNN
F 1 "1k" H 2170 2905 50  0000 L CNN
F 2 "Resistor_SMD:R_1206_3216Metric" V 2030 2950 50  0001 C CNN
F 3 "~" H 2100 2950 50  0001 C CNN
	1    2100 2950
	1    0    0    -1  
$EndComp
$Comp
L Device:R R?
U 1 1 6055BA2F
P 1850 2800
AR Path="/6055BA2F" Ref="R?"  Part="1" 
AR Path="/604E1E00/6055BA2F" Ref="R?"  Part="1" 
AR Path="/6055837D/6055BA2F" Ref="R10"  Part="1" 
F 0 "R10" H 1920 2846 50  0000 L CNN
F 1 "100" H 1920 2755 50  0000 L CNN
F 2 "Resistor_SMD:R_0805_2012Metric_Pad1.20x1.40mm_HandSolder" V 1780 2800 50  0001 C CNN
F 3 "~" H 1850 2800 50  0001 C CNN
	1    1850 2800
	0    1    1    0   
$EndComp
Wire Wire Line
	2000 2800 2100 2800
Wire Wire Line
	2500 3100 2500 3000
$Comp
L power:GND #PWR?
U 1 1 6055BA37
P 2500 3100
AR Path="/6055BA37" Ref="#PWR?"  Part="1" 
AR Path="/604E1E00/6055BA37" Ref="#PWR?"  Part="1" 
AR Path="/6055837D/6055BA37" Ref="#PWR09"  Part="1" 
F 0 "#PWR09" H 2500 2850 50  0001 C CNN
F 1 "GND" H 2505 2927 50  0000 C CNN
F 2 "" H 2500 3100 50  0001 C CNN
F 3 "" H 2500 3100 50  0001 C CNN
	1    2500 3100
	1    0    0    -1  
$EndComp
Connection ~ 2500 3100
$Comp
L Device:R R?
U 1 1 6055BA3E
P 2100 1800
AR Path="/6055BA3E" Ref="R?"  Part="1" 
AR Path="/604E1E00/6055BA3E" Ref="R?"  Part="1" 
AR Path="/6055837D/6055BA3E" Ref="R11"  Part="1" 
F 0 "R11" H 2170 1846 50  0000 L CNN
F 1 "1k" H 2170 1755 50  0000 L CNN
F 2 "Resistor_SMD:R_1206_3216Metric" V 2030 1800 50  0001 C CNN
F 3 "~" H 2100 1800 50  0001 C CNN
	1    2100 1800
	1    0    0    -1  
$EndComp
Text GLabel 1700 2800 0    50   Input ~ 0
DOI0
Text GLabel 2650 2550 2    50   Input ~ 0
DO0
Wire Wire Line
	2650 2550 2500 2550
Wire Wire Line
	2500 2550 2500 2600
Connection ~ 2100 2800
Wire Wire Line
	2100 2800 2200 2800
Wire Wire Line
	2100 3100 2500 3100
$Comp
L Device:R R?
U 1 1 6055BA51
P 2500 1800
AR Path="/6055BA51" Ref="R?"  Part="1" 
AR Path="/604E1E00/6055BA51" Ref="R?"  Part="1" 
AR Path="/6055837D/6055BA51" Ref="R13"  Part="1" 
F 0 "R13" H 2570 1846 50  0000 L CNN
F 1 "1k" H 2570 1755 50  0000 L CNN
F 2 "Resistor_SMD:R_1206_3216Metric" V 2430 1800 50  0001 C CNN
F 3 "~" H 2500 1800 50  0001 C CNN
	1    2500 1800
	1    0    0    -1  
$EndComp
$Comp
L Device:LED D?
U 1 1 6055BA57
P 2500 2100
AR Path="/604E1E00/6055BA57" Ref="D?"  Part="1" 
AR Path="/6055837D/6055BA57" Ref="D3"  Part="1" 
F 0 "D3" V 2539 1982 50  0000 R CNN
F 1 "KP-3216SURCK" V 2448 1982 50  0000 R CNN
F 2 "LED_SMD:LED_1206_3216Metric_Pad1.42x1.75mm_HandSolder" H 2500 2100 50  0001 C CNN
F 3 "~" H 2500 2100 50  0001 C CNN
	1    2500 2100
	0    -1   -1   0   
$EndComp
Wire Wire Line
	2100 1650 2500 1650
Connection ~ 2500 1650
Wire Wire Line
	2500 1550 2500 1650
$Comp
L power:+24V #PWR08
U 1 1 6055C606
P 2500 1550
F 0 "#PWR08" H 2500 1400 50  0001 C CNN
F 1 "+24V" H 2515 1723 50  0000 C CNN
F 2 "" H 2500 1550 50  0001 C CNN
F 3 "" H 2500 1550 50  0001 C CNN
	1    2500 1550
	1    0    0    -1  
$EndComp
$Comp
L Device:D D4
U 1 1 6055DDE5
P 2500 2400
F 0 "D4" V 2546 2320 50  0000 R CNN
F 1 "D" V 2455 2320 50  0000 R CNN
F 2 "Diode_SMD:D_SOD-323" H 2500 2400 50  0001 C CNN
F 3 "~" H 2500 2400 50  0001 C CNN
	1    2500 2400
	0    -1   -1   0   
$EndComp
Connection ~ 2500 2550
Wire Wire Line
	2100 1950 2100 2250
Wire Wire Line
	2100 2250 2500 2250
Connection ~ 2500 2250
$Comp
L Device:Q_NMOS_DGS Q?
U 1 1 6059DC48
P 4100 2850
AR Path="/6059DC48" Ref="Q?"  Part="1" 
AR Path="/604E1E00/6059DC48" Ref="Q?"  Part="1" 
AR Path="/6055837D/6059DC48" Ref="Q4"  Part="1" 
F 0 "Q4" H 4304 2896 50  0000 L CNN
F 1 "IRLML6346" H 4304 2805 50  0000 L CNN
F 2 "Package_TO_SOT_SMD:SOT-23" H 4300 2950 50  0001 C CNN
F 3 "~" H 4100 2850 50  0001 C CNN
	1    4100 2850
	1    0    0    -1  
$EndComp
$Comp
L Device:R R?
U 1 1 6059DC4E
P 3800 3000
AR Path="/6059DC4E" Ref="R?"  Part="1" 
AR Path="/604E1E00/6059DC4E" Ref="R?"  Part="1" 
AR Path="/6055837D/6059DC4E" Ref="R17"  Part="1" 
F 0 "R17" H 3870 3046 50  0000 L CNN
F 1 "1k" H 3870 2955 50  0000 L CNN
F 2 "Resistor_SMD:R_1206_3216Metric" V 3730 3000 50  0001 C CNN
F 3 "~" H 3800 3000 50  0001 C CNN
	1    3800 3000
	1    0    0    -1  
$EndComp
$Comp
L Device:R R?
U 1 1 6059DC54
P 3550 2850
AR Path="/6059DC54" Ref="R?"  Part="1" 
AR Path="/604E1E00/6059DC54" Ref="R?"  Part="1" 
AR Path="/6055837D/6059DC54" Ref="R14"  Part="1" 
F 0 "R14" H 3620 2896 50  0000 L CNN
F 1 "100" H 3620 2805 50  0000 L CNN
F 2 "Resistor_SMD:R_1206_3216Metric" V 3480 2850 50  0001 C CNN
F 3 "~" H 3550 2850 50  0001 C CNN
	1    3550 2850
	0    1    1    0   
$EndComp
Wire Wire Line
	3700 2850 3800 2850
Wire Wire Line
	4200 3150 4200 3050
$Comp
L power:GND #PWR?
U 1 1 6059DC5C
P 4200 3150
AR Path="/6059DC5C" Ref="#PWR?"  Part="1" 
AR Path="/604E1E00/6059DC5C" Ref="#PWR?"  Part="1" 
AR Path="/6055837D/6059DC5C" Ref="#PWR013"  Part="1" 
F 0 "#PWR013" H 4200 2900 50  0001 C CNN
F 1 "GND" H 4205 2977 50  0000 C CNN
F 2 "" H 4200 3150 50  0001 C CNN
F 3 "" H 4200 3150 50  0001 C CNN
	1    4200 3150
	1    0    0    -1  
$EndComp
Connection ~ 4200 3150
$Comp
L Device:R R?
U 1 1 6059DC63
P 3800 1850
AR Path="/6059DC63" Ref="R?"  Part="1" 
AR Path="/604E1E00/6059DC63" Ref="R?"  Part="1" 
AR Path="/6055837D/6059DC63" Ref="R16"  Part="1" 
F 0 "R16" H 3870 1896 50  0000 L CNN
F 1 "1k" H 3870 1805 50  0000 L CNN
F 2 "Resistor_SMD:R_1206_3216Metric" V 3730 1850 50  0001 C CNN
F 3 "~" H 3800 1850 50  0001 C CNN
	1    3800 1850
	1    0    0    -1  
$EndComp
Text GLabel 3400 2850 0    50   Input ~ 0
DOI1
Text GLabel 4350 2600 2    50   Input ~ 0
DO1
Wire Wire Line
	4350 2600 4200 2600
Wire Wire Line
	4200 2600 4200 2650
Connection ~ 3800 2850
Wire Wire Line
	3800 2850 3900 2850
Wire Wire Line
	3800 3150 4200 3150
$Comp
L Device:R R?
U 1 1 6059DC70
P 4200 1850
AR Path="/6059DC70" Ref="R?"  Part="1" 
AR Path="/604E1E00/6059DC70" Ref="R?"  Part="1" 
AR Path="/6055837D/6059DC70" Ref="R20"  Part="1" 
F 0 "R20" H 4270 1896 50  0000 L CNN
F 1 "1k" H 4270 1805 50  0000 L CNN
F 2 "Resistor_SMD:R_1206_3216Metric" V 4130 1850 50  0001 C CNN
F 3 "~" H 4200 1850 50  0001 C CNN
	1    4200 1850
	1    0    0    -1  
$EndComp
$Comp
L Device:LED D?
U 1 1 6059DC76
P 4200 2150
AR Path="/604E1E00/6059DC76" Ref="D?"  Part="1" 
AR Path="/6055837D/6059DC76" Ref="D7"  Part="1" 
F 0 "D7" V 4239 2032 50  0000 R CNN
F 1 "KP-3216SURCK" V 4148 2032 50  0000 R CNN
F 2 "LED_SMD:LED_1206_3216Metric_Pad1.42x1.75mm_HandSolder" H 4200 2150 50  0001 C CNN
F 3 "~" H 4200 2150 50  0001 C CNN
	1    4200 2150
	0    -1   -1   0   
$EndComp
Wire Wire Line
	3800 1700 4200 1700
Connection ~ 4200 1700
Wire Wire Line
	4200 1600 4200 1700
$Comp
L power:+24V #PWR012
U 1 1 6059DC7F
P 4200 1600
F 0 "#PWR012" H 4200 1450 50  0001 C CNN
F 1 "+24V" H 4215 1773 50  0000 C CNN
F 2 "" H 4200 1600 50  0001 C CNN
F 3 "" H 4200 1600 50  0001 C CNN
	1    4200 1600
	1    0    0    -1  
$EndComp
$Comp
L Device:D D8
U 1 1 6059DC85
P 4200 2450
F 0 "D8" V 4246 2370 50  0000 R CNN
F 1 "D" V 4155 2370 50  0000 R CNN
F 2 "Diode_SMD:D_SOD-323" H 4200 2450 50  0001 C CNN
F 3 "~" H 4200 2450 50  0001 C CNN
	1    4200 2450
	0    -1   -1   0   
$EndComp
Connection ~ 4200 2600
Wire Wire Line
	3800 2000 3800 2300
Wire Wire Line
	3800 2300 4200 2300
Connection ~ 4200 2300
$Comp
L Device:Q_NMOS_DGS Q?
U 1 1 605ADE0D
P 5850 2850
AR Path="/605ADE0D" Ref="Q?"  Part="1" 
AR Path="/604E1E00/605ADE0D" Ref="Q?"  Part="1" 
AR Path="/6055837D/605ADE0D" Ref="Q6"  Part="1" 
F 0 "Q6" H 6054 2896 50  0000 L CNN
F 1 "IRLML6346" H 6054 2805 50  0000 L CNN
F 2 "Package_TO_SOT_SMD:SOT-23" H 6050 2950 50  0001 C CNN
F 3 "~" H 5850 2850 50  0001 C CNN
	1    5850 2850
	1    0    0    -1  
$EndComp
$Comp
L Device:R R?
U 1 1 605ADE13
P 5550 3000
AR Path="/605ADE13" Ref="R?"  Part="1" 
AR Path="/604E1E00/605ADE13" Ref="R?"  Part="1" 
AR Path="/6055837D/605ADE13" Ref="R25"  Part="1" 
F 0 "R25" H 5620 3046 50  0000 L CNN
F 1 "1k" H 5620 2955 50  0000 L CNN
F 2 "Resistor_SMD:R_1206_3216Metric" V 5480 3000 50  0001 C CNN
F 3 "~" H 5550 3000 50  0001 C CNN
	1    5550 3000
	1    0    0    -1  
$EndComp
$Comp
L Device:R R?
U 1 1 605ADE19
P 5300 2850
AR Path="/605ADE19" Ref="R?"  Part="1" 
AR Path="/604E1E00/605ADE19" Ref="R?"  Part="1" 
AR Path="/6055837D/605ADE19" Ref="R22"  Part="1" 
F 0 "R22" H 5370 2896 50  0000 L CNN
F 1 "100" H 5370 2805 50  0000 L CNN
F 2 "Resistor_SMD:R_1206_3216Metric" V 5230 2850 50  0001 C CNN
F 3 "~" H 5300 2850 50  0001 C CNN
	1    5300 2850
	0    1    1    0   
$EndComp
Wire Wire Line
	5450 2850 5550 2850
Wire Wire Line
	5950 3150 5950 3050
$Comp
L power:GND #PWR?
U 1 1 605ADE21
P 5950 3150
AR Path="/605ADE21" Ref="#PWR?"  Part="1" 
AR Path="/604E1E00/605ADE21" Ref="#PWR?"  Part="1" 
AR Path="/6055837D/605ADE21" Ref="#PWR017"  Part="1" 
F 0 "#PWR017" H 5950 2900 50  0001 C CNN
F 1 "GND" H 5955 2977 50  0000 C CNN
F 2 "" H 5950 3150 50  0001 C CNN
F 3 "" H 5950 3150 50  0001 C CNN
	1    5950 3150
	1    0    0    -1  
$EndComp
Connection ~ 5950 3150
$Comp
L Device:R R?
U 1 1 605ADE28
P 5550 1850
AR Path="/605ADE28" Ref="R?"  Part="1" 
AR Path="/604E1E00/605ADE28" Ref="R?"  Part="1" 
AR Path="/6055837D/605ADE28" Ref="R24"  Part="1" 
F 0 "R24" H 5620 1896 50  0000 L CNN
F 1 "1k" H 5620 1805 50  0000 L CNN
F 2 "Resistor_SMD:R_1206_3216Metric" V 5480 1850 50  0001 C CNN
F 3 "~" H 5550 1850 50  0001 C CNN
	1    5550 1850
	1    0    0    -1  
$EndComp
Text GLabel 5150 2850 0    50   Input ~ 0
DOI2
Text GLabel 6100 2600 2    50   Input ~ 0
DO2
Wire Wire Line
	6100 2600 5950 2600
Wire Wire Line
	5950 2600 5950 2650
Connection ~ 5550 2850
Wire Wire Line
	5550 2850 5650 2850
Wire Wire Line
	5550 3150 5950 3150
$Comp
L Device:R R?
U 1 1 605ADE35
P 5950 1850
AR Path="/605ADE35" Ref="R?"  Part="1" 
AR Path="/604E1E00/605ADE35" Ref="R?"  Part="1" 
AR Path="/6055837D/605ADE35" Ref="R28"  Part="1" 
F 0 "R28" H 6020 1896 50  0000 L CNN
F 1 "1k" H 6020 1805 50  0000 L CNN
F 2 "Resistor_SMD:R_1206_3216Metric" V 5880 1850 50  0001 C CNN
F 3 "~" H 5950 1850 50  0001 C CNN
	1    5950 1850
	1    0    0    -1  
$EndComp
$Comp
L Device:LED D?
U 1 1 605ADE3B
P 5950 2150
AR Path="/604E1E00/605ADE3B" Ref="D?"  Part="1" 
AR Path="/6055837D/605ADE3B" Ref="D11"  Part="1" 
F 0 "D11" V 5989 2032 50  0000 R CNN
F 1 "KP-3216SURCK" V 5898 2032 50  0000 R CNN
F 2 "LED_SMD:LED_1206_3216Metric_Pad1.42x1.75mm_HandSolder" H 5950 2150 50  0001 C CNN
F 3 "~" H 5950 2150 50  0001 C CNN
	1    5950 2150
	0    -1   -1   0   
$EndComp
Wire Wire Line
	5550 1700 5950 1700
Connection ~ 5950 1700
Wire Wire Line
	5950 1600 5950 1700
$Comp
L power:+24V #PWR016
U 1 1 605ADE44
P 5950 1600
F 0 "#PWR016" H 5950 1450 50  0001 C CNN
F 1 "+24V" H 5965 1773 50  0000 C CNN
F 2 "" H 5950 1600 50  0001 C CNN
F 3 "" H 5950 1600 50  0001 C CNN
	1    5950 1600
	1    0    0    -1  
$EndComp
$Comp
L Device:D D12
U 1 1 605ADE4A
P 5950 2450
F 0 "D12" V 5996 2370 50  0000 R CNN
F 1 "D" V 5905 2370 50  0000 R CNN
F 2 "Diode_SMD:D_SOD-323" H 5950 2450 50  0001 C CNN
F 3 "~" H 5950 2450 50  0001 C CNN
	1    5950 2450
	0    -1   -1   0   
$EndComp
Connection ~ 5950 2600
Wire Wire Line
	5550 2000 5550 2300
Wire Wire Line
	5550 2300 5950 2300
Connection ~ 5950 2300
$Comp
L Device:Q_NMOS_DGS Q?
U 1 1 605ADE54
P 7550 2900
AR Path="/605ADE54" Ref="Q?"  Part="1" 
AR Path="/604E1E00/605ADE54" Ref="Q?"  Part="1" 
AR Path="/6055837D/605ADE54" Ref="Q8"  Part="1" 
F 0 "Q8" H 7754 2946 50  0000 L CNN
F 1 "IRLML6346" H 7754 2855 50  0000 L CNN
F 2 "Package_TO_SOT_SMD:SOT-23" H 7750 3000 50  0001 C CNN
F 3 "~" H 7550 2900 50  0001 C CNN
	1    7550 2900
	1    0    0    -1  
$EndComp
$Comp
L Device:R R?
U 1 1 605ADE5A
P 7250 3050
AR Path="/605ADE5A" Ref="R?"  Part="1" 
AR Path="/604E1E00/605ADE5A" Ref="R?"  Part="1" 
AR Path="/6055837D/605ADE5A" Ref="R33"  Part="1" 
F 0 "R33" H 7320 3096 50  0000 L CNN
F 1 "1k" H 7320 3005 50  0000 L CNN
F 2 "Resistor_SMD:R_1206_3216Metric" V 7180 3050 50  0001 C CNN
F 3 "~" H 7250 3050 50  0001 C CNN
	1    7250 3050
	1    0    0    -1  
$EndComp
$Comp
L Device:R R?
U 1 1 605ADE60
P 7000 2900
AR Path="/605ADE60" Ref="R?"  Part="1" 
AR Path="/604E1E00/605ADE60" Ref="R?"  Part="1" 
AR Path="/6055837D/605ADE60" Ref="R30"  Part="1" 
F 0 "R30" H 7070 2946 50  0000 L CNN
F 1 "100" H 7070 2855 50  0000 L CNN
F 2 "Resistor_SMD:R_1206_3216Metric" V 6930 2900 50  0001 C CNN
F 3 "~" H 7000 2900 50  0001 C CNN
	1    7000 2900
	0    1    1    0   
$EndComp
Wire Wire Line
	7150 2900 7250 2900
Wire Wire Line
	7650 3200 7650 3100
$Comp
L power:GND #PWR?
U 1 1 605ADE68
P 7650 3200
AR Path="/605ADE68" Ref="#PWR?"  Part="1" 
AR Path="/604E1E00/605ADE68" Ref="#PWR?"  Part="1" 
AR Path="/6055837D/605ADE68" Ref="#PWR021"  Part="1" 
F 0 "#PWR021" H 7650 2950 50  0001 C CNN
F 1 "GND" H 7655 3027 50  0000 C CNN
F 2 "" H 7650 3200 50  0001 C CNN
F 3 "" H 7650 3200 50  0001 C CNN
	1    7650 3200
	1    0    0    -1  
$EndComp
Connection ~ 7650 3200
$Comp
L Device:R R?
U 1 1 605ADE6F
P 7250 1900
AR Path="/605ADE6F" Ref="R?"  Part="1" 
AR Path="/604E1E00/605ADE6F" Ref="R?"  Part="1" 
AR Path="/6055837D/605ADE6F" Ref="R32"  Part="1" 
F 0 "R32" H 7320 1946 50  0000 L CNN
F 1 "1k" H 7320 1855 50  0000 L CNN
F 2 "Resistor_SMD:R_1206_3216Metric" V 7180 1900 50  0001 C CNN
F 3 "~" H 7250 1900 50  0001 C CNN
	1    7250 1900
	1    0    0    -1  
$EndComp
Text GLabel 6850 2900 0    50   Input ~ 0
DOI3
Text GLabel 7800 2650 2    50   Input ~ 0
DO3
Wire Wire Line
	7800 2650 7650 2650
Wire Wire Line
	7650 2650 7650 2700
Connection ~ 7250 2900
Wire Wire Line
	7250 2900 7350 2900
Wire Wire Line
	7250 3200 7650 3200
$Comp
L Device:R R?
U 1 1 605ADE7C
P 7650 1900
AR Path="/605ADE7C" Ref="R?"  Part="1" 
AR Path="/604E1E00/605ADE7C" Ref="R?"  Part="1" 
AR Path="/6055837D/605ADE7C" Ref="R36"  Part="1" 
F 0 "R36" H 7720 1946 50  0000 L CNN
F 1 "1k" H 7720 1855 50  0000 L CNN
F 2 "Resistor_SMD:R_1206_3216Metric" V 7580 1900 50  0001 C CNN
F 3 "~" H 7650 1900 50  0001 C CNN
	1    7650 1900
	1    0    0    -1  
$EndComp
$Comp
L Device:LED D?
U 1 1 605ADE82
P 7650 2200
AR Path="/604E1E00/605ADE82" Ref="D?"  Part="1" 
AR Path="/6055837D/605ADE82" Ref="D15"  Part="1" 
F 0 "D15" V 7689 2082 50  0000 R CNN
F 1 "KP-3216SURCK" V 7598 2082 50  0000 R CNN
F 2 "LED_SMD:LED_1206_3216Metric_Pad1.42x1.75mm_HandSolder" H 7650 2200 50  0001 C CNN
F 3 "~" H 7650 2200 50  0001 C CNN
	1    7650 2200
	0    -1   -1   0   
$EndComp
Wire Wire Line
	7250 1750 7650 1750
Connection ~ 7650 1750
Wire Wire Line
	7650 1650 7650 1750
$Comp
L power:+24V #PWR020
U 1 1 605ADE8B
P 7650 1650
F 0 "#PWR020" H 7650 1500 50  0001 C CNN
F 1 "+24V" H 7665 1823 50  0000 C CNN
F 2 "" H 7650 1650 50  0001 C CNN
F 3 "" H 7650 1650 50  0001 C CNN
	1    7650 1650
	1    0    0    -1  
$EndComp
$Comp
L Device:D D16
U 1 1 605ADE91
P 7650 2500
F 0 "D16" V 7696 2420 50  0000 R CNN
F 1 "D" V 7605 2420 50  0000 R CNN
F 2 "Diode_SMD:D_SOD-323" H 7650 2500 50  0001 C CNN
F 3 "~" H 7650 2500 50  0001 C CNN
	1    7650 2500
	0    -1   -1   0   
$EndComp
Connection ~ 7650 2650
Wire Wire Line
	7250 2050 7250 2350
Wire Wire Line
	7250 2350 7650 2350
Connection ~ 7650 2350
$Comp
L Device:Q_NMOS_DGS Q?
U 1 1 605C3F9B
P 2400 4850
AR Path="/605C3F9B" Ref="Q?"  Part="1" 
AR Path="/604E1E00/605C3F9B" Ref="Q?"  Part="1" 
AR Path="/6055837D/605C3F9B" Ref="Q1"  Part="1" 
F 0 "Q1" H 2604 4896 50  0000 L CNN
F 1 "IRLML6346" H 2604 4805 50  0000 L CNN
F 2 "Package_TO_SOT_SMD:SOT-23" H 2600 4950 50  0001 C CNN
F 3 "~" H 2400 4850 50  0001 C CNN
	1    2400 4850
	1    0    0    -1  
$EndComp
$Comp
L Device:R R?
U 1 1 605C3FA1
P 2100 5000
AR Path="/605C3FA1" Ref="R?"  Part="1" 
AR Path="/604E1E00/605C3FA1" Ref="R?"  Part="1" 
AR Path="/6055837D/605C3FA1" Ref="R3"  Part="1" 
F 0 "R3" H 2170 5046 50  0000 L CNN
F 1 "1k" H 2170 4955 50  0000 L CNN
F 2 "Resistor_SMD:R_1206_3216Metric" V 2030 5000 50  0001 C CNN
F 3 "~" H 2100 5000 50  0001 C CNN
	1    2100 5000
	1    0    0    -1  
$EndComp
$Comp
L Device:R R?
U 1 1 605C3FA7
P 1850 4850
AR Path="/605C3FA7" Ref="R?"  Part="1" 
AR Path="/604E1E00/605C3FA7" Ref="R?"  Part="1" 
AR Path="/6055837D/605C3FA7" Ref="R1"  Part="1" 
F 0 "R1" H 1920 4896 50  0000 L CNN
F 1 "100" H 1920 4805 50  0000 L CNN
F 2 "Resistor_SMD:R_1206_3216Metric" V 1780 4850 50  0001 C CNN
F 3 "~" H 1850 4850 50  0001 C CNN
	1    1850 4850
	0    1    1    0   
$EndComp
Wire Wire Line
	2000 4850 2100 4850
Wire Wire Line
	2500 5150 2500 5050
$Comp
L power:GND #PWR?
U 1 1 605C3FAF
P 2500 5150
AR Path="/605C3FAF" Ref="#PWR?"  Part="1" 
AR Path="/604E1E00/605C3FAF" Ref="#PWR?"  Part="1" 
AR Path="/6055837D/605C3FAF" Ref="#PWR011"  Part="1" 
F 0 "#PWR011" H 2500 4900 50  0001 C CNN
F 1 "GND" H 2505 4977 50  0000 C CNN
F 2 "" H 2500 5150 50  0001 C CNN
F 3 "" H 2500 5150 50  0001 C CNN
	1    2500 5150
	1    0    0    -1  
$EndComp
Connection ~ 2500 5150
$Comp
L Device:R R?
U 1 1 605C3FB6
P 2100 3850
AR Path="/605C3FB6" Ref="R?"  Part="1" 
AR Path="/604E1E00/605C3FB6" Ref="R?"  Part="1" 
AR Path="/6055837D/605C3FB6" Ref="R2"  Part="1" 
F 0 "R2" H 2170 3896 50  0000 L CNN
F 1 "1k" H 2170 3805 50  0000 L CNN
F 2 "Resistor_SMD:R_1206_3216Metric" V 2030 3850 50  0001 C CNN
F 3 "~" H 2100 3850 50  0001 C CNN
	1    2100 3850
	1    0    0    -1  
$EndComp
Text GLabel 1700 4850 0    50   Input ~ 0
DOI4
Text GLabel 2650 4600 2    50   Input ~ 0
DO4
Wire Wire Line
	2650 4600 2500 4600
Wire Wire Line
	2500 4600 2500 4650
Connection ~ 2100 4850
Wire Wire Line
	2100 4850 2200 4850
Wire Wire Line
	2100 5150 2500 5150
$Comp
L Device:R R?
U 1 1 605C3FC3
P 2500 3850
AR Path="/605C3FC3" Ref="R?"  Part="1" 
AR Path="/604E1E00/605C3FC3" Ref="R?"  Part="1" 
AR Path="/6055837D/605C3FC3" Ref="R4"  Part="1" 
F 0 "R4" H 2570 3896 50  0000 L CNN
F 1 "1k" H 2570 3805 50  0000 L CNN
F 2 "Resistor_SMD:R_1206_3216Metric" V 2430 3850 50  0001 C CNN
F 3 "~" H 2500 3850 50  0001 C CNN
	1    2500 3850
	1    0    0    -1  
$EndComp
$Comp
L Device:LED D?
U 1 1 605C3FC9
P 2500 4150
AR Path="/604E1E00/605C3FC9" Ref="D?"  Part="1" 
AR Path="/6055837D/605C3FC9" Ref="D5"  Part="1" 
F 0 "D5" V 2539 4032 50  0000 R CNN
F 1 "KP-3216SURCK" V 2448 4032 50  0000 R CNN
F 2 "LED_SMD:LED_1206_3216Metric_Pad1.42x1.75mm_HandSolder" H 2500 4150 50  0001 C CNN
F 3 "~" H 2500 4150 50  0001 C CNN
	1    2500 4150
	0    -1   -1   0   
$EndComp
Wire Wire Line
	2100 3700 2500 3700
Connection ~ 2500 3700
Wire Wire Line
	2500 3600 2500 3700
$Comp
L power:+24V #PWR010
U 1 1 605C3FD2
P 2500 3600
F 0 "#PWR010" H 2500 3450 50  0001 C CNN
F 1 "+24V" H 2515 3773 50  0000 C CNN
F 2 "" H 2500 3600 50  0001 C CNN
F 3 "" H 2500 3600 50  0001 C CNN
	1    2500 3600
	1    0    0    -1  
$EndComp
$Comp
L Device:D D6
U 1 1 605C3FD8
P 2500 4450
F 0 "D6" V 2546 4370 50  0000 R CNN
F 1 "D" V 2455 4370 50  0000 R CNN
F 2 "Diode_SMD:D_SOD-323" H 2500 4450 50  0001 C CNN
F 3 "~" H 2500 4450 50  0001 C CNN
	1    2500 4450
	0    -1   -1   0   
$EndComp
Connection ~ 2500 4600
Wire Wire Line
	2100 4000 2100 4300
Wire Wire Line
	2100 4300 2500 4300
Connection ~ 2500 4300
$Comp
L Device:Q_NMOS_DGS Q?
U 1 1 605C3FE2
P 4100 4900
AR Path="/605C3FE2" Ref="Q?"  Part="1" 
AR Path="/604E1E00/605C3FE2" Ref="Q?"  Part="1" 
AR Path="/6055837D/605C3FE2" Ref="Q5"  Part="1" 
F 0 "Q5" H 4304 4946 50  0000 L CNN
F 1 "IRLML6346" H 4304 4855 50  0000 L CNN
F 2 "Package_TO_SOT_SMD:SOT-23" H 4300 5000 50  0001 C CNN
F 3 "~" H 4100 4900 50  0001 C CNN
	1    4100 4900
	1    0    0    -1  
$EndComp
$Comp
L Device:R R?
U 1 1 605C3FE8
P 3800 5050
AR Path="/605C3FE8" Ref="R?"  Part="1" 
AR Path="/604E1E00/605C3FE8" Ref="R?"  Part="1" 
AR Path="/6055837D/605C3FE8" Ref="R19"  Part="1" 
F 0 "R19" H 3870 5096 50  0000 L CNN
F 1 "1k" H 3870 5005 50  0000 L CNN
F 2 "Resistor_SMD:R_1206_3216Metric" V 3730 5050 50  0001 C CNN
F 3 "~" H 3800 5050 50  0001 C CNN
	1    3800 5050
	1    0    0    -1  
$EndComp
$Comp
L Device:R R?
U 1 1 605C3FEE
P 3550 4900
AR Path="/605C3FEE" Ref="R?"  Part="1" 
AR Path="/604E1E00/605C3FEE" Ref="R?"  Part="1" 
AR Path="/6055837D/605C3FEE" Ref="R15"  Part="1" 
F 0 "R15" H 3620 4946 50  0000 L CNN
F 1 "100" H 3620 4855 50  0000 L CNN
F 2 "Resistor_SMD:R_1206_3216Metric" V 3480 4900 50  0001 C CNN
F 3 "~" H 3550 4900 50  0001 C CNN
	1    3550 4900
	0    1    1    0   
$EndComp
Wire Wire Line
	3700 4900 3800 4900
Wire Wire Line
	4200 5200 4200 5100
$Comp
L power:GND #PWR?
U 1 1 605C3FF6
P 4200 5200
AR Path="/605C3FF6" Ref="#PWR?"  Part="1" 
AR Path="/604E1E00/605C3FF6" Ref="#PWR?"  Part="1" 
AR Path="/6055837D/605C3FF6" Ref="#PWR015"  Part="1" 
F 0 "#PWR015" H 4200 4950 50  0001 C CNN
F 1 "GND" H 4205 5027 50  0000 C CNN
F 2 "" H 4200 5200 50  0001 C CNN
F 3 "" H 4200 5200 50  0001 C CNN
	1    4200 5200
	1    0    0    -1  
$EndComp
Connection ~ 4200 5200
$Comp
L Device:R R?
U 1 1 605C3FFD
P 3800 3900
AR Path="/605C3FFD" Ref="R?"  Part="1" 
AR Path="/604E1E00/605C3FFD" Ref="R?"  Part="1" 
AR Path="/6055837D/605C3FFD" Ref="R18"  Part="1" 
F 0 "R18" H 3870 3946 50  0000 L CNN
F 1 "1k" H 3870 3855 50  0000 L CNN
F 2 "Resistor_SMD:R_1206_3216Metric" V 3730 3900 50  0001 C CNN
F 3 "~" H 3800 3900 50  0001 C CNN
	1    3800 3900
	1    0    0    -1  
$EndComp
Text GLabel 3400 4900 0    50   Input ~ 0
DOI5
Text GLabel 4350 4650 2    50   Input ~ 0
DO5
Wire Wire Line
	4350 4650 4200 4650
Wire Wire Line
	4200 4650 4200 4700
Connection ~ 3800 4900
Wire Wire Line
	3800 4900 3900 4900
Wire Wire Line
	3800 5200 4200 5200
$Comp
L Device:R R?
U 1 1 605C400A
P 4200 3900
AR Path="/605C400A" Ref="R?"  Part="1" 
AR Path="/604E1E00/605C400A" Ref="R?"  Part="1" 
AR Path="/6055837D/605C400A" Ref="R21"  Part="1" 
F 0 "R21" H 4270 3946 50  0000 L CNN
F 1 "1k" H 4270 3855 50  0000 L CNN
F 2 "Resistor_SMD:R_1206_3216Metric" V 4130 3900 50  0001 C CNN
F 3 "~" H 4200 3900 50  0001 C CNN
	1    4200 3900
	1    0    0    -1  
$EndComp
$Comp
L Device:LED D?
U 1 1 605C4010
P 4200 4200
AR Path="/604E1E00/605C4010" Ref="D?"  Part="1" 
AR Path="/6055837D/605C4010" Ref="D9"  Part="1" 
F 0 "D9" V 4239 4082 50  0000 R CNN
F 1 "KP-3216SURCK" V 4148 4082 50  0000 R CNN
F 2 "LED_SMD:LED_1206_3216Metric_Pad1.42x1.75mm_HandSolder" H 4200 4200 50  0001 C CNN
F 3 "~" H 4200 4200 50  0001 C CNN
	1    4200 4200
	0    -1   -1   0   
$EndComp
Wire Wire Line
	3800 3750 4200 3750
Connection ~ 4200 3750
Wire Wire Line
	4200 3650 4200 3750
$Comp
L power:+24V #PWR014
U 1 1 605C4019
P 4200 3650
F 0 "#PWR014" H 4200 3500 50  0001 C CNN
F 1 "+24V" H 4215 3823 50  0000 C CNN
F 2 "" H 4200 3650 50  0001 C CNN
F 3 "" H 4200 3650 50  0001 C CNN
	1    4200 3650
	1    0    0    -1  
$EndComp
$Comp
L Device:D D10
U 1 1 605C401F
P 4200 4500
F 0 "D10" V 4246 4420 50  0000 R CNN
F 1 "D" V 4155 4420 50  0000 R CNN
F 2 "Diode_SMD:D_SOD-323" H 4200 4500 50  0001 C CNN
F 3 "~" H 4200 4500 50  0001 C CNN
	1    4200 4500
	0    -1   -1   0   
$EndComp
Connection ~ 4200 4650
Wire Wire Line
	3800 4050 3800 4350
Wire Wire Line
	3800 4350 4200 4350
Connection ~ 4200 4350
$Comp
L Device:Q_NMOS_DGS Q?
U 1 1 605C4029
P 5850 4900
AR Path="/605C4029" Ref="Q?"  Part="1" 
AR Path="/604E1E00/605C4029" Ref="Q?"  Part="1" 
AR Path="/6055837D/605C4029" Ref="Q7"  Part="1" 
F 0 "Q7" H 6054 4946 50  0000 L CNN
F 1 "IRLML6346" H 6054 4855 50  0000 L CNN
F 2 "Package_TO_SOT_SMD:SOT-23" H 6050 5000 50  0001 C CNN
F 3 "~" H 5850 4900 50  0001 C CNN
	1    5850 4900
	1    0    0    -1  
$EndComp
$Comp
L Device:R R?
U 1 1 605C402F
P 5550 5050
AR Path="/605C402F" Ref="R?"  Part="1" 
AR Path="/604E1E00/605C402F" Ref="R?"  Part="1" 
AR Path="/6055837D/605C402F" Ref="R27"  Part="1" 
F 0 "R27" H 5620 5096 50  0000 L CNN
F 1 "1k" H 5620 5005 50  0000 L CNN
F 2 "Resistor_SMD:R_1206_3216Metric" V 5480 5050 50  0001 C CNN
F 3 "~" H 5550 5050 50  0001 C CNN
	1    5550 5050
	1    0    0    -1  
$EndComp
$Comp
L Device:R R?
U 1 1 605C4035
P 5300 4900
AR Path="/605C4035" Ref="R?"  Part="1" 
AR Path="/604E1E00/605C4035" Ref="R?"  Part="1" 
AR Path="/6055837D/605C4035" Ref="R23"  Part="1" 
F 0 "R23" H 5370 4946 50  0000 L CNN
F 1 "100" H 5370 4855 50  0000 L CNN
F 2 "Resistor_SMD:R_1206_3216Metric" V 5230 4900 50  0001 C CNN
F 3 "~" H 5300 4900 50  0001 C CNN
	1    5300 4900
	0    1    1    0   
$EndComp
Wire Wire Line
	5450 4900 5550 4900
Wire Wire Line
	5950 5200 5950 5100
$Comp
L power:GND #PWR?
U 1 1 605C403D
P 5950 5200
AR Path="/605C403D" Ref="#PWR?"  Part="1" 
AR Path="/604E1E00/605C403D" Ref="#PWR?"  Part="1" 
AR Path="/6055837D/605C403D" Ref="#PWR019"  Part="1" 
F 0 "#PWR019" H 5950 4950 50  0001 C CNN
F 1 "GND" H 5955 5027 50  0000 C CNN
F 2 "" H 5950 5200 50  0001 C CNN
F 3 "" H 5950 5200 50  0001 C CNN
	1    5950 5200
	1    0    0    -1  
$EndComp
Connection ~ 5950 5200
$Comp
L Device:R R?
U 1 1 605C4044
P 5550 3900
AR Path="/605C4044" Ref="R?"  Part="1" 
AR Path="/604E1E00/605C4044" Ref="R?"  Part="1" 
AR Path="/6055837D/605C4044" Ref="R26"  Part="1" 
F 0 "R26" H 5620 3946 50  0000 L CNN
F 1 "1k" H 5620 3855 50  0000 L CNN
F 2 "Resistor_SMD:R_1206_3216Metric" V 5480 3900 50  0001 C CNN
F 3 "~" H 5550 3900 50  0001 C CNN
	1    5550 3900
	1    0    0    -1  
$EndComp
Text GLabel 5150 4900 0    50   Input ~ 0
DOI6
Text GLabel 6100 4650 2    50   Input ~ 0
DO6
Wire Wire Line
	6100 4650 5950 4650
Wire Wire Line
	5950 4650 5950 4700
Connection ~ 5550 4900
Wire Wire Line
	5550 4900 5650 4900
Wire Wire Line
	5550 5200 5950 5200
$Comp
L Device:R R?
U 1 1 605C4051
P 5950 3900
AR Path="/605C4051" Ref="R?"  Part="1" 
AR Path="/604E1E00/605C4051" Ref="R?"  Part="1" 
AR Path="/6055837D/605C4051" Ref="R29"  Part="1" 
F 0 "R29" H 6020 3946 50  0000 L CNN
F 1 "1k" H 6020 3855 50  0000 L CNN
F 2 "Resistor_SMD:R_1206_3216Metric" V 5880 3900 50  0001 C CNN
F 3 "~" H 5950 3900 50  0001 C CNN
	1    5950 3900
	1    0    0    -1  
$EndComp
$Comp
L Device:LED D?
U 1 1 605C4057
P 5950 4200
AR Path="/604E1E00/605C4057" Ref="D?"  Part="1" 
AR Path="/6055837D/605C4057" Ref="D13"  Part="1" 
F 0 "D13" V 5989 4082 50  0000 R CNN
F 1 "KP-3216SURCK" V 5898 4082 50  0000 R CNN
F 2 "LED_SMD:LED_1206_3216Metric_Pad1.42x1.75mm_HandSolder" H 5950 4200 50  0001 C CNN
F 3 "~" H 5950 4200 50  0001 C CNN
	1    5950 4200
	0    -1   -1   0   
$EndComp
Wire Wire Line
	5550 3750 5950 3750
Connection ~ 5950 3750
Wire Wire Line
	5950 3650 5950 3750
$Comp
L power:+24V #PWR018
U 1 1 605C4060
P 5950 3650
F 0 "#PWR018" H 5950 3500 50  0001 C CNN
F 1 "+24V" H 5965 3823 50  0000 C CNN
F 2 "" H 5950 3650 50  0001 C CNN
F 3 "" H 5950 3650 50  0001 C CNN
	1    5950 3650
	1    0    0    -1  
$EndComp
$Comp
L Device:D D14
U 1 1 605C4066
P 5950 4500
F 0 "D14" V 5996 4420 50  0000 R CNN
F 1 "D" V 5905 4420 50  0000 R CNN
F 2 "Diode_SMD:D_SOD-323" H 5950 4500 50  0001 C CNN
F 3 "~" H 5950 4500 50  0001 C CNN
	1    5950 4500
	0    -1   -1   0   
$EndComp
Connection ~ 5950 4650
Wire Wire Line
	5550 4050 5550 4350
Wire Wire Line
	5550 4350 5950 4350
Connection ~ 5950 4350
$Comp
L Device:Q_NMOS_DGS Q?
U 1 1 605C4070
P 7550 4950
AR Path="/605C4070" Ref="Q?"  Part="1" 
AR Path="/604E1E00/605C4070" Ref="Q?"  Part="1" 
AR Path="/6055837D/605C4070" Ref="Q9"  Part="1" 
F 0 "Q9" H 7754 4996 50  0000 L CNN
F 1 "IRLML6346" H 7754 4905 50  0000 L CNN
F 2 "Package_TO_SOT_SMD:SOT-23" H 7750 5050 50  0001 C CNN
F 3 "~" H 7550 4950 50  0001 C CNN
	1    7550 4950
	1    0    0    -1  
$EndComp
$Comp
L Device:R R?
U 1 1 605C4076
P 7250 5100
AR Path="/605C4076" Ref="R?"  Part="1" 
AR Path="/604E1E00/605C4076" Ref="R?"  Part="1" 
AR Path="/6055837D/605C4076" Ref="R35"  Part="1" 
F 0 "R35" H 7320 5146 50  0000 L CNN
F 1 "1k" H 7320 5055 50  0000 L CNN
F 2 "Resistor_SMD:R_1206_3216Metric" V 7180 5100 50  0001 C CNN
F 3 "~" H 7250 5100 50  0001 C CNN
	1    7250 5100
	1    0    0    -1  
$EndComp
$Comp
L Device:R R?
U 1 1 605C407C
P 7000 4950
AR Path="/605C407C" Ref="R?"  Part="1" 
AR Path="/604E1E00/605C407C" Ref="R?"  Part="1" 
AR Path="/6055837D/605C407C" Ref="R31"  Part="1" 
F 0 "R31" H 7070 4996 50  0000 L CNN
F 1 "100" H 7070 4905 50  0000 L CNN
F 2 "Resistor_SMD:R_1206_3216Metric" V 6930 4950 50  0001 C CNN
F 3 "~" H 7000 4950 50  0001 C CNN
	1    7000 4950
	0    1    1    0   
$EndComp
Wire Wire Line
	7150 4950 7250 4950
Wire Wire Line
	7650 5250 7650 5150
$Comp
L power:GND #PWR?
U 1 1 605C4084
P 7650 5250
AR Path="/605C4084" Ref="#PWR?"  Part="1" 
AR Path="/604E1E00/605C4084" Ref="#PWR?"  Part="1" 
AR Path="/6055837D/605C4084" Ref="#PWR023"  Part="1" 
F 0 "#PWR023" H 7650 5000 50  0001 C CNN
F 1 "GND" H 7655 5077 50  0000 C CNN
F 2 "" H 7650 5250 50  0001 C CNN
F 3 "" H 7650 5250 50  0001 C CNN
	1    7650 5250
	1    0    0    -1  
$EndComp
Connection ~ 7650 5250
$Comp
L Device:R R?
U 1 1 605C408B
P 7250 3950
AR Path="/605C408B" Ref="R?"  Part="1" 
AR Path="/604E1E00/605C408B" Ref="R?"  Part="1" 
AR Path="/6055837D/605C408B" Ref="R34"  Part="1" 
F 0 "R34" H 7320 3996 50  0000 L CNN
F 1 "1k" H 7320 3905 50  0000 L CNN
F 2 "Resistor_SMD:R_1206_3216Metric" V 7180 3950 50  0001 C CNN
F 3 "~" H 7250 3950 50  0001 C CNN
	1    7250 3950
	1    0    0    -1  
$EndComp
Text GLabel 6850 4950 0    50   Input ~ 0
DOI7
Text GLabel 7800 4700 2    50   Input ~ 0
DO7
Wire Wire Line
	7800 4700 7650 4700
Wire Wire Line
	7650 4700 7650 4750
Connection ~ 7250 4950
Wire Wire Line
	7250 4950 7350 4950
Wire Wire Line
	7250 5250 7650 5250
$Comp
L Device:R R?
U 1 1 605C4098
P 7650 3950
AR Path="/605C4098" Ref="R?"  Part="1" 
AR Path="/604E1E00/605C4098" Ref="R?"  Part="1" 
AR Path="/6055837D/605C4098" Ref="R37"  Part="1" 
F 0 "R37" H 7720 3996 50  0000 L CNN
F 1 "1k" H 7720 3905 50  0000 L CNN
F 2 "Resistor_SMD:R_1206_3216Metric" V 7580 3950 50  0001 C CNN
F 3 "~" H 7650 3950 50  0001 C CNN
	1    7650 3950
	1    0    0    -1  
$EndComp
$Comp
L Device:LED D?
U 1 1 605C409E
P 7650 4250
AR Path="/604E1E00/605C409E" Ref="D?"  Part="1" 
AR Path="/6055837D/605C409E" Ref="D17"  Part="1" 
F 0 "D17" V 7689 4132 50  0000 R CNN
F 1 "KP-3216SURCK" V 7598 4132 50  0000 R CNN
F 2 "LED_SMD:LED_1206_3216Metric_Pad1.42x1.75mm_HandSolder" H 7650 4250 50  0001 C CNN
F 3 "~" H 7650 4250 50  0001 C CNN
	1    7650 4250
	0    -1   -1   0   
$EndComp
Wire Wire Line
	7250 3800 7650 3800
Connection ~ 7650 3800
Wire Wire Line
	7650 3700 7650 3800
$Comp
L power:+24V #PWR022
U 1 1 605C40A7
P 7650 3700
F 0 "#PWR022" H 7650 3550 50  0001 C CNN
F 1 "+24V" H 7665 3873 50  0000 C CNN
F 2 "" H 7650 3700 50  0001 C CNN
F 3 "" H 7650 3700 50  0001 C CNN
	1    7650 3700
	1    0    0    -1  
$EndComp
$Comp
L Device:D D18
U 1 1 605C40AD
P 7650 4550
F 0 "D18" V 7696 4470 50  0000 R CNN
F 1 "D" V 7605 4470 50  0000 R CNN
F 2 "Diode_SMD:D_SOD-323" H 7650 4550 50  0001 C CNN
F 3 "~" H 7650 4550 50  0001 C CNN
	1    7650 4550
	0    -1   -1   0   
$EndComp
Connection ~ 7650 4700
Wire Wire Line
	7250 4100 7250 4400
Wire Wire Line
	7250 4400 7650 4400
Connection ~ 7650 4400
Text GLabel 10300 1850 0    50   Input ~ 0
DO0
Text GLabel 10300 1950 0    50   Input ~ 0
DO1
Text GLabel 10300 2050 0    50   Input ~ 0
DO2
Text GLabel 10300 2150 0    50   Input ~ 0
DO3
Text GLabel 10300 2250 0    50   Input ~ 0
DO4
Text GLabel 10300 2350 0    50   Input ~ 0
DO5
Text GLabel 10300 2450 0    50   Input ~ 0
DO6
Text GLabel 10300 2550 0    50   Input ~ 0
DO7
$Comp
L power:+24V #PWR024
U 1 1 605E3F00
P 9400 1450
F 0 "#PWR024" H 9400 1300 50  0001 C CNN
F 1 "+24V" H 9415 1623 50  0000 C CNN
F 2 "" H 9400 1450 50  0001 C CNN
F 3 "" H 9400 1450 50  0001 C CNN
	1    9400 1450
	1    0    0    -1  
$EndComp
Text GLabel 9250 1600 0    50   Input ~ 0
24V
Wire Wire Line
	9250 1600 9400 1600
Wire Wire Line
	9400 1600 9400 1450
Text GLabel 10300 2850 0    50   Input ~ 0
24V
$Comp
L power:GND #PWR025
U 1 1 605E71FB
P 9400 1750
F 0 "#PWR025" H 9400 1500 50  0001 C CNN
F 1 "GND" H 9405 1577 50  0000 C CNN
F 2 "" H 9400 1750 50  0001 C CNN
F 3 "" H 9400 1750 50  0001 C CNN
	1    9400 1750
	1    0    0    -1  
$EndComp
Text GLabel 9250 1700 0    50   Input ~ 0
GND
Wire Wire Line
	9250 1700 9400 1700
Wire Wire Line
	9400 1700 9400 1750
Text GLabel 10300 2750 0    50   Input ~ 0
GND
$Comp
L Connector:Screw_Terminal_01x12 J5
U 1 1 60628C5D
P 10500 2350
F 0 "J5" H 10580 2342 50  0000 L CNN
F 1 "DO0-7 PWM 5V0 24V0" H 10580 2251 50  0000 L CNN
F 2 "TerminalBlock_Phoenix:TerminalBlock_Phoenix_PT-1,5-12-3.5-H_1x12_P3.50mm_Horizontal" H 10500 2350 50  0001 C CNN
F 3 "~" H 10500 2350 50  0001 C CNN
	1    10500 2350
	1    0    0    -1  
$EndComp
Text GLabel 9700 1600 2    50   Input ~ 0
5V0
$Comp
L power:+5V #PWR034
U 1 1 6062B2B1
P 9600 1450
F 0 "#PWR034" H 9600 1300 50  0001 C CNN
F 1 "+5V" H 9615 1623 50  0000 C CNN
F 2 "" H 9600 1450 50  0001 C CNN
F 3 "" H 9600 1450 50  0001 C CNN
	1    9600 1450
	1    0    0    -1  
$EndComp
Wire Wire Line
	9600 1450 9600 1600
Wire Wire Line
	9600 1600 9700 1600
Text GLabel 10300 2950 0    50   Input ~ 0
5V0
$Comp
L Device:Q_NMOS_DGS Q?
U 1 1 60634EE6
P 9350 5000
AR Path="/60634EE6" Ref="Q?"  Part="1" 
AR Path="/604E1E00/60634EE6" Ref="Q?"  Part="1" 
AR Path="/6055837D/60634EE6" Ref="Q13"  Part="1" 
F 0 "Q13" H 9554 5046 50  0000 L CNN
F 1 "IRLML6346" H 9554 4955 50  0000 L CNN
F 2 "Package_TO_SOT_SMD:SOT-23" H 9550 5100 50  0001 C CNN
F 3 "~" H 9350 5000 50  0001 C CNN
	1    9350 5000
	1    0    0    -1  
$EndComp
$Comp
L Device:R R?
U 1 1 60634EEC
P 9050 5150
AR Path="/60634EEC" Ref="R?"  Part="1" 
AR Path="/604E1E00/60634EEC" Ref="R?"  Part="1" 
AR Path="/6055837D/60634EEC" Ref="R51"  Part="1" 
F 0 "R51" H 9120 5196 50  0000 L CNN
F 1 "1k" H 9120 5105 50  0000 L CNN
F 2 "Resistor_SMD:R_1206_3216Metric" V 8980 5150 50  0001 C CNN
F 3 "~" H 9050 5150 50  0001 C CNN
	1    9050 5150
	1    0    0    -1  
$EndComp
$Comp
L Device:R R?
U 1 1 60634EF2
P 8800 5000
AR Path="/60634EF2" Ref="R?"  Part="1" 
AR Path="/604E1E00/60634EF2" Ref="R?"  Part="1" 
AR Path="/6055837D/60634EF2" Ref="R50"  Part="1" 
F 0 "R50" H 8870 5046 50  0000 L CNN
F 1 "100" H 8870 4955 50  0000 L CNN
F 2 "Resistor_SMD:R_1206_3216Metric" V 8730 5000 50  0001 C CNN
F 3 "~" H 8800 5000 50  0001 C CNN
	1    8800 5000
	0    1    1    0   
$EndComp
Wire Wire Line
	8950 5000 9050 5000
Wire Wire Line
	9450 5300 9450 5200
$Comp
L power:GND #PWR?
U 1 1 60634EFA
P 9450 5300
AR Path="/60634EFA" Ref="#PWR?"  Part="1" 
AR Path="/604E1E00/60634EFA" Ref="#PWR?"  Part="1" 
AR Path="/6055837D/60634EFA" Ref="#PWR037"  Part="1" 
F 0 "#PWR037" H 9450 5050 50  0001 C CNN
F 1 "GND" H 9455 5127 50  0000 C CNN
F 2 "" H 9450 5300 50  0001 C CNN
F 3 "" H 9450 5300 50  0001 C CNN
	1    9450 5300
	1    0    0    -1  
$EndComp
Connection ~ 9450 5300
Text GLabel 8650 5000 0    50   Input ~ 0
PWM_IN
Text GLabel 10450 4750 2    50   Input ~ 0
PWM_OUT
Wire Wire Line
	9600 4750 9450 4750
Wire Wire Line
	9450 4750 9450 4800
Connection ~ 9050 5000
Wire Wire Line
	9050 5000 9150 5000
Wire Wire Line
	9050 5300 9450 5300
$Comp
L Device:R R?
U 1 1 60634F0E
P 9450 4000
AR Path="/60634F0E" Ref="R?"  Part="1" 
AR Path="/604E1E00/60634F0E" Ref="R?"  Part="1" 
AR Path="/6055837D/60634F0E" Ref="R52"  Part="1" 
F 0 "R52" H 9520 4046 50  0000 L CNN
F 1 "1k" H 9520 3955 50  0000 L CNN
F 2 "Resistor_SMD:R_1206_3216Metric" V 9380 4000 50  0001 C CNN
F 3 "~" H 9450 4000 50  0001 C CNN
	1    9450 4000
	1    0    0    -1  
$EndComp
Wire Wire Line
	9450 3750 9450 3850
$Comp
L power:+24V #PWR036
U 1 1 60634F1D
P 9450 3750
F 0 "#PWR036" H 9450 3600 50  0001 C CNN
F 1 "+24V" H 9465 3923 50  0000 C CNN
F 2 "" H 9450 3750 50  0001 C CNN
F 3 "" H 9450 3750 50  0001 C CNN
	1    9450 3750
	1    0    0    -1  
$EndComp
$Comp
L Device:D_Zener D22
U 1 1 6063E4B2
P 9000 4300
F 0 "D22" V 8954 4380 50  0000 L CNN
F 1 "10V" V 9045 4380 50  0000 L CNN
F 2 "Diode_SMD:D_SOD-323" H 9000 4300 50  0001 C CNN
F 3 "~" H 9000 4300 50  0001 C CNN
	1    9000 4300
	0    1    1    0   
$EndComp
$Comp
L power:GND #PWR?
U 1 1 6063EA0B
P 9000 4450
AR Path="/6063EA0B" Ref="#PWR?"  Part="1" 
AR Path="/604E1E00/6063EA0B" Ref="#PWR?"  Part="1" 
AR Path="/6055837D/6063EA0B" Ref="#PWR035"  Part="1" 
F 0 "#PWR035" H 9000 4200 50  0001 C CNN
F 1 "GND" H 9005 4277 50  0000 C CNN
F 2 "" H 9000 4450 50  0001 C CNN
F 3 "" H 9000 4450 50  0001 C CNN
	1    9000 4450
	1    0    0    -1  
$EndComp
$Comp
L Device:C C2
U 1 1 6063F57B
P 9650 4300
F 0 "C2" H 9765 4346 50  0000 L CNN
F 1 "C" H 9765 4255 50  0000 L CNN
F 2 "Capacitor_SMD:C_1206_3216Metric_Pad1.33x1.80mm_HandSolder" H 9688 4150 50  0001 C CNN
F 3 "~" H 9650 4300 50  0001 C CNN
	1    9650 4300
	1    0    0    -1  
$EndComp
Wire Wire Line
	9650 4150 9450 4150
Connection ~ 9450 4150
Wire Wire Line
	9450 4150 9000 4150
$Comp
L power:GND #PWR?
U 1 1 606457B1
P 9650 4450
AR Path="/606457B1" Ref="#PWR?"  Part="1" 
AR Path="/604E1E00/606457B1" Ref="#PWR?"  Part="1" 
AR Path="/6055837D/606457B1" Ref="#PWR038"  Part="1" 
F 0 "#PWR038" H 9650 4200 50  0001 C CNN
F 1 "GND" H 9655 4277 50  0000 C CNN
F 2 "" H 9650 4450 50  0001 C CNN
F 3 "" H 9650 4450 50  0001 C CNN
	1    9650 4450
	1    0    0    -1  
$EndComp
$Comp
L Device:R R?
U 1 1 60646D00
P 9450 4450
AR Path="/60646D00" Ref="R?"  Part="1" 
AR Path="/604E1E00/60646D00" Ref="R?"  Part="1" 
AR Path="/6055837D/60646D00" Ref="R5"  Part="1" 
F 0 "R5" H 9520 4496 50  0000 L CNN
F 1 "1k" H 9520 4405 50  0000 L CNN
F 2 "Resistor_SMD:R_1206_3216Metric" V 9380 4450 50  0001 C CNN
F 3 "~" H 9450 4450 50  0001 C CNN
	1    9450 4450
	1    0    0    -1  
$EndComp
Wire Wire Line
	9450 4600 9450 4750
Connection ~ 9450 4750
Wire Wire Line
	9450 4300 9450 4150
Text GLabel 10300 2650 0    50   Input ~ 0
PWM_OUT
Text Notes 8850 4000 0    50   ~ 0
TL431?
$Comp
L Device:R R?
U 1 1 605B2AC4
P 9750 4750
AR Path="/605B2AC4" Ref="R?"  Part="1" 
AR Path="/604E1E00/605B2AC4" Ref="R?"  Part="1" 
AR Path="/6055837D/605B2AC4" Ref="R57"  Part="1" 
F 0 "R57" H 9820 4796 50  0000 L CNN
F 1 "1k" H 9820 4705 50  0000 L CNN
F 2 "Resistor_SMD:R_1206_3216Metric" V 9680 4750 50  0001 C CNN
F 3 "~" H 9750 4750 50  0001 C CNN
	1    9750 4750
	0    1    1    0   
$EndComp
Wire Wire Line
	10450 4750 9900 4750
$EndSCHEMATC
