EESchema Schematic File Version 4
EELAYER 30 0
EELAYER END
$Descr A4 11693 8268
encoding utf-8
Sheet 6 6
Title ""
Date ""
Rev ""
Comp ""
Comment1 ""
Comment2 ""
Comment3 ""
Comment4 ""
$EndDescr
$Comp
L Interface_UART:SP3485EN U4
U 1 1 6065A428
P 4300 3400
F 0 "U4" H 3850 3950 50  0000 C CNN
F 1 "SP3485EN" H 4000 3850 50  0000 C CNN
F 2 "Package_SO:SOIC-8_3.9x4.9mm_P1.27mm" H 5350 3050 50  0001 C CIN
F 3 "http://www.icbase.com/pdf/SPX/SPX00480106.pdf" H 4300 3400 50  0001 C CNN
	1    4300 3400
	1    0    0    -1  
$EndComp
$Comp
L power:GND #PWR047
U 1 1 6065AFD4
P 4300 4050
F 0 "#PWR047" H 4300 3800 50  0001 C CNN
F 1 "GND" H 4305 3877 50  0000 C CNN
F 2 "" H 4300 4050 50  0001 C CNN
F 3 "" H 4300 4050 50  0001 C CNN
	1    4300 4050
	1    0    0    -1  
$EndComp
$Comp
L Connector:Screw_Terminal_01x03 J6
U 1 1 6065B7C6
P 5750 3450
F 0 "J6" H 5830 3492 50  0000 L CNN
F 1 "RS485" H 5830 3401 50  0000 L CNN
F 2 "TerminalBlock_Phoenix:TerminalBlock_Phoenix_PT-1,5-3-3.5-H_1x03_P3.50mm_Horizontal" H 5750 3450 50  0001 C CNN
F 3 "~" H 5750 3450 50  0001 C CNN
	1    5750 3450
	1    0    0    -1  
$EndComp
Wire Wire Line
	4700 3300 4900 3300
Wire Wire Line
	4900 3300 4900 3350
Wire Wire Line
	4900 3350 5200 3350
Wire Wire Line
	4700 3500 4900 3500
Wire Wire Line
	4900 3500 4900 3450
Wire Wire Line
	4900 3450 5550 3450
$Comp
L Device:Jumper_NO_Small JP2
U 1 1 6065E21D
P 5000 3900
F 0 "JP2" H 5000 3750 50  0000 C CNN
F 1 "TERM" H 5000 3650 50  0000 C CNN
F 2 "Jumper:SolderJumper-3_P1.3mm_Open_Pad1.0x1.5mm" H 5000 3900 50  0001 C CNN
F 3 "~" H 5000 3900 50  0001 C CNN
	1    5000 3900
	1    0    0    -1  
$EndComp
Wire Wire Line
	4900 3900 4900 3500
Connection ~ 4900 3500
$Comp
L Device:R R54
U 1 1 6065F649
P 5200 3650
F 0 "R54" H 5270 3696 50  0000 L CNN
F 1 "R" H 5270 3605 50  0000 L CNN
F 2 "" V 5130 3650 50  0001 C CNN
F 3 "~" H 5200 3650 50  0001 C CNN
	1    5200 3650
	1    0    0    -1  
$EndComp
Wire Wire Line
	5100 3900 5200 3900
Wire Wire Line
	5200 3900 5200 3800
Wire Wire Line
	5200 3500 5200 3350
Connection ~ 5200 3350
Wire Wire Line
	5200 3350 5550 3350
Wire Wire Line
	4300 4050 4300 3800
$Comp
L power:GND #PWR048
U 1 1 6065FEFF
P 5500 4050
F 0 "#PWR048" H 5500 3800 50  0001 C CNN
F 1 "GND" H 5505 3877 50  0000 C CNN
F 2 "" H 5500 4050 50  0001 C CNN
F 3 "" H 5500 4050 50  0001 C CNN
	1    5500 4050
	1    0    0    -1  
$EndComp
Wire Wire Line
	5500 4050 5500 3550
Wire Wire Line
	5500 3550 5550 3550
Wire Wire Line
	3900 3300 3650 3300
Wire Wire Line
	3650 3300 3650 3400
Wire Wire Line
	3650 3500 3900 3500
Wire Wire Line
	3900 3200 3500 3200
Wire Wire Line
	3900 3600 3500 3600
Text GLabel 3500 3200 0    50   Input ~ 0
RX
Text GLabel 3500 3600 0    50   Input ~ 0
TX
Text GLabel 3500 3400 0    50   Input ~ 0
DE
Wire Wire Line
	3500 3400 3650 3400
Connection ~ 3650 3400
Wire Wire Line
	3650 3400 3650 3500
$Comp
L Device:C C10
U 1 1 6066367F
P 4450 2800
F 0 "C10" V 4250 3000 50  0000 C CNN
F 1 "330n" V 4350 3000 50  0000 C CNN
F 2 "Capacitor_SMD:C_1206_3216Metric_Pad1.33x1.80mm_HandSolder" H 4488 2650 50  0001 C CNN
F 3 "~" H 4450 2800 50  0001 C CNN
	1    4450 2800
	0    1    1    0   
$EndComp
$Comp
L power:GND #PWR050
U 1 1 60664426
P 4700 2900
F 0 "#PWR050" H 4700 2650 50  0001 C CNN
F 1 "GND" H 4705 2727 50  0000 C CNN
F 2 "" H 4700 2900 50  0001 C CNN
F 3 "" H 4700 2900 50  0001 C CNN
	1    4700 2900
	1    0    0    -1  
$EndComp
Wire Wire Line
	4600 2800 4700 2800
Wire Wire Line
	4700 2800 4700 2900
Wire Wire Line
	4300 3000 4300 2800
Connection ~ 4300 2800
Wire Wire Line
	4300 2800 4300 2700
$Comp
L power:+3V3 #PWR049
U 1 1 60665B08
P 4300 2700
F 0 "#PWR049" H 4300 2550 50  0001 C CNN
F 1 "+3V3" H 4315 2873 50  0000 C CNN
F 2 "" H 4300 2700 50  0001 C CNN
F 3 "" H 4300 2700 50  0001 C CNN
	1    4300 2700
	1    0    0    -1  
$EndComp
$EndSCHEMATC
