EESchema Schematic File Version 4
EELAYER 30 0
EELAYER END
$Descr A4 11693 8268
encoding utf-8
Sheet 3 6
Title ""
Date ""
Rev ""
Comp ""
Comment1 ""
Comment2 ""
Comment3 ""
Comment4 ""
$EndDescr
$Comp
L Regulator_Switching:LM2596S-5 U3
U 1 1 60528812
P 5050 2750
F 0 "U3" H 5050 3117 50  0000 C CNN
F 1 "LM2596S-5" H 5050 3026 50  0000 C CNN
F 2 "Package_TO_SOT_SMD:TO-263-5_TabPin3" H 5100 2500 50  0001 L CIN
F 3 "http://www.ti.com/lit/ds/symlink/lm2596.pdf" H 5050 2750 50  0001 C CNN
	1    5050 2750
	1    0    0    -1  
$EndComp
$Comp
L power:GND #PWR05
U 1 1 60529078
P 5050 3250
F 0 "#PWR05" H 5050 3000 50  0001 C CNN
F 1 "GND" H 5055 3077 50  0000 C CNN
F 2 "" H 5050 3250 50  0001 C CNN
F 3 "" H 5050 3250 50  0001 C CNN
	1    5050 3250
	1    0    0    -1  
$EndComp
$Comp
L power:GND #PWR04
U 1 1 60529612
P 4350 3250
F 0 "#PWR04" H 4350 3000 50  0001 C CNN
F 1 "GND" H 4355 3077 50  0000 C CNN
F 2 "" H 4350 3250 50  0001 C CNN
F 3 "" H 4350 3250 50  0001 C CNN
	1    4350 3250
	1    0    0    -1  
$EndComp
Wire Wire Line
	4350 2850 4550 2850
$Comp
L Device:C C7
U 1 1 6052A7EB
P 3950 2800
F 0 "C7" H 4065 2846 50  0000 L CNN
F 1 "330n" H 4065 2755 50  0000 L CNN
F 2 "Capacitor_SMD:C_1825_4564Metric_Pad1.57x6.80mm_HandSolder" H 3988 2650 50  0001 C CNN
F 3 "~" H 3950 2800 50  0001 C CNN
	1    3950 2800
	1    0    0    -1  
$EndComp
$Comp
L Device:CP C6
U 1 1 6052C230
P 3450 2800
F 0 "C6" H 3568 2846 50  0000 L CNN
F 1 "680u" H 3568 2755 50  0000 L CNN
F 2 "Capacitor_SMD:CP_Elec_6.3x5.7" H 3488 2650 50  0001 C CNN
F 3 "~" H 3450 2800 50  0001 C CNN
	1    3450 2800
	1    0    0    -1  
$EndComp
Connection ~ 3450 2650
Wire Wire Line
	3450 2650 3050 2650
$Comp
L power:GND #PWR03
U 1 1 6052C712
P 3600 3250
F 0 "#PWR03" H 3600 3000 50  0001 C CNN
F 1 "GND" H 3605 3077 50  0000 C CNN
F 2 "" H 3600 3250 50  0001 C CNN
F 3 "" H 3600 3250 50  0001 C CNN
	1    3600 3250
	1    0    0    -1  
$EndComp
Connection ~ 3600 2950
Wire Wire Line
	3600 2950 3450 2950
Connection ~ 3950 2650
Wire Wire Line
	3450 2650 3950 2650
Wire Wire Line
	3600 2950 3950 2950
Wire Wire Line
	3950 2650 4550 2650
$Comp
L Device:D_Schottky D2
U 1 1 60530B15
P 5750 3050
F 0 "D2" V 5704 3130 50  0000 L CNN
F 1 "D_Schottky" V 5795 3130 50  0000 L CNN
F 2 "Diode_SMD:D_SMC" H 5750 3050 50  0001 C CNN
F 3 "~" H 5750 3050 50  0001 C CNN
	1    5750 3050
	0    1    1    0   
$EndComp
Wire Wire Line
	3600 2950 3600 3250
Wire Wire Line
	4350 2850 4350 3250
Wire Wire Line
	5050 3050 5050 3250
$Comp
L power:GND #PWR06
U 1 1 6053668E
P 5750 3250
F 0 "#PWR06" H 5750 3000 50  0001 C CNN
F 1 "GND" H 5755 3077 50  0000 C CNN
F 2 "" H 5750 3250 50  0001 C CNN
F 3 "" H 5750 3250 50  0001 C CNN
	1    5750 3250
	1    0    0    -1  
$EndComp
Wire Wire Line
	5750 3250 5750 3200
Wire Wire Line
	5550 2850 5750 2850
Wire Wire Line
	5750 2850 5750 2900
$Comp
L pspice:INDUCTOR L1
U 1 1 605373F7
P 6200 2850
F 0 "L1" H 6200 3065 50  0000 C CNN
F 1 "INDUCTOR" H 6200 2974 50  0000 C CNN
F 2 "Inductor_SMD:L_Neosid_SM-NE127_HandSoldering" H 6200 2850 50  0001 C CNN
F 3 "~" H 6200 2850 50  0001 C CNN
	1    6200 2850
	1    0    0    -1  
$EndComp
Wire Wire Line
	5950 2850 5750 2850
Connection ~ 5750 2850
Wire Wire Line
	5550 2650 6600 2650
Wire Wire Line
	6600 2650 6600 2850
Wire Wire Line
	6600 2850 6450 2850
$Comp
L Device:CP C8
U 1 1 60538546
P 6750 3050
F 0 "C8" H 6868 3096 50  0000 L CNN
F 1 "680u" H 6868 3005 50  0000 L CNN
F 2 "Capacitor_SMD:CP_Elec_6.3x5.7" H 6788 2900 50  0001 C CNN
F 3 "~" H 6750 3050 50  0001 C CNN
	1    6750 3050
	1    0    0    -1  
$EndComp
$Comp
L power:GND #PWR07
U 1 1 60539A39
P 6750 3250
F 0 "#PWR07" H 6750 3000 50  0001 C CNN
F 1 "GND" H 6755 3077 50  0000 C CNN
F 2 "" H 6750 3250 50  0001 C CNN
F 3 "" H 6750 3250 50  0001 C CNN
	1    6750 3250
	1    0    0    -1  
$EndComp
Wire Wire Line
	6750 3250 6750 3200
Wire Wire Line
	6750 2900 6750 2850
Wire Wire Line
	6750 2850 6600 2850
Connection ~ 6600 2850
$Comp
L Device:C C9
U 1 1 6053ABA9
P 7250 3050
F 0 "C9" H 7365 3096 50  0000 L CNN
F 1 "330n" H 7365 3005 50  0000 L CNN
F 2 "Capacitor_SMD:C_1825_4564Metric_Pad1.57x6.80mm_HandSolder" H 7288 2900 50  0001 C CNN
F 3 "~" H 7250 3050 50  0001 C CNN
	1    7250 3050
	1    0    0    -1  
$EndComp
Wire Wire Line
	7250 3200 6750 3200
Connection ~ 6750 3200
Wire Wire Line
	7250 2900 7250 2850
Wire Wire Line
	7250 2850 6750 2850
Connection ~ 6750 2850
Wire Wire Line
	7250 2850 7500 2850
Connection ~ 7250 2850
Text GLabel 7500 2850 2    50   Input ~ 0
5V_OUT
$Comp
L Connector:Screw_Terminal_01x02 J3
U 1 1 60586D9D
P 2850 2750
F 0 "J3" H 2768 2425 50  0000 C CNN
F 1 "PWR" H 2768 2516 50  0000 C CNN
F 2 "TerminalBlock_Phoenix:TerminalBlock_Phoenix_PT-1,5-2-3.5-H_1x02_P3.50mm_Horizontal" H 2850 2750 50  0001 C CNN
F 3 "~" H 2850 2750 50  0001 C CNN
	1    2850 2750
	-1   0    0    1   
$EndComp
Wire Wire Line
	3050 2750 3050 2950
Wire Wire Line
	3050 2950 3450 2950
Connection ~ 3450 2950
$Comp
L power:PWR_FLAG #FLG01
U 1 1 6058A267
P 7250 2850
F 0 "#FLG01" H 7250 2925 50  0001 C CNN
F 1 "PWR_FLAG" H 7250 3023 50  0000 C CNN
F 2 "" H 7250 2850 50  0001 C CNN
F 3 "~" H 7250 2850 50  0001 C CNN
	1    7250 2850
	1    0    0    -1  
$EndComp
$EndSCHEMATC
