EESchema Schematic File Version 4
EELAYER 30 0
EELAYER END
$Descr A4 11693 8268
encoding utf-8
Sheet 5 6
Title ""
Date ""
Rev ""
Comp ""
Comment1 ""
Comment2 ""
Comment3 ""
Comment4 ""
$EndDescr
$Comp
L Interface_CAN_LIN:MCP2515-xSO U?
U 1 1 60658E08
P 4000 3550
AR Path="/60658E08" Ref="U?"  Part="1" 
AR Path="/60650143/60658E08" Ref="U1"  Part="1" 
F 0 "U1" H 3350 4550 50  0000 C CNN
F 1 "MCP2515-xSO" H 3550 4450 50  0000 C CNN
F 2 "Package_SO:SOIC-18W_7.5x11.6mm_P1.27mm" H 4000 2650 50  0001 C CIN
F 3 "http://ww1.microchip.com/downloads/en/DeviceDoc/21801e.pdf" H 4100 2750 50  0001 C CNN
	1    4000 3550
	1    0    0    -1  
$EndComp
Text GLabel 3100 2950 0    50   Input ~ 0
GPIO10(MOSI)
Text GLabel 3100 3050 0    50   Input ~ 0
GPIO9(MISO)
Text GLabel 3100 3150 0    50   Input ~ 0
GPIO8(CE0)
Text GLabel 3100 3250 0    50   Input ~ 0
GPIO11(SCLK)
Wire Wire Line
	3100 2950 3400 2950
Wire Wire Line
	3400 3050 3100 3050
Wire Wire Line
	3100 3150 3400 3150
Wire Wire Line
	3400 3250 3100 3250
$Comp
L Device:Crystal_Small Y?
U 1 1 60658E16
P 2850 3750
AR Path="/60658E16" Ref="Y?"  Part="1" 
AR Path="/60650143/60658E16" Ref="Y1"  Part="1" 
F 0 "Y1" H 2850 3975 50  0000 C CNN
F 1 "SG-615P 16.0MHz" H 2850 3884 50  0000 C CNN
F 2 "" H 2850 3750 50  0001 C CNN
F 3 "~" H 2850 3750 50  0001 C CNN
	1    2850 3750
	1    0    0    -1  
$EndComp
Wire Wire Line
	2700 3750 2700 3850
Wire Wire Line
	2700 3850 3400 3850
$Comp
L power:GND #PWR?
U 1 1 60658E1E
P 2900 4350
AR Path="/60658E1E" Ref="#PWR?"  Part="1" 
AR Path="/60650143/60658E1E" Ref="#PWR039"  Part="1" 
F 0 "#PWR039" H 2900 4100 50  0001 C CNN
F 1 "GND" H 2905 4177 50  0000 C CNN
F 2 "" H 2900 4350 50  0001 C CNN
F 3 "" H 2900 4350 50  0001 C CNN
	1    2900 4350
	1    0    0    -1  
$EndComp
$Comp
L power:+5VA #PWR?
U 1 1 60658E24
P 4000 2650
AR Path="/60658E24" Ref="#PWR?"  Part="1" 
AR Path="/60650143/60658E24" Ref="#PWR040"  Part="1" 
F 0 "#PWR040" H 4000 2500 50  0001 C CNN
F 1 "+5VA" H 4015 2823 50  0000 C CNN
F 2 "" H 4000 2650 50  0001 C CNN
F 3 "" H 4000 2650 50  0001 C CNN
	1    4000 2650
	1    0    0    -1  
$EndComp
Wire Wire Line
	4000 2650 4000 2700
$Comp
L power:GND #PWR?
U 1 1 60658E2B
P 4000 4350
AR Path="/60658E2B" Ref="#PWR?"  Part="1" 
AR Path="/60650143/60658E2B" Ref="#PWR041"  Part="1" 
F 0 "#PWR041" H 4000 4100 50  0001 C CNN
F 1 "GND" H 4005 4177 50  0000 C CNN
F 2 "" H 4000 4350 50  0001 C CNN
F 3 "" H 4000 4350 50  0001 C CNN
	1    4000 4350
	1    0    0    -1  
$EndComp
$Comp
L Interface_CAN_LIN:SN65HVD230 U?
U 1 1 60658E31
P 6700 3050
AR Path="/60658E31" Ref="U?"  Part="1" 
AR Path="/60650143/60658E31" Ref="U2"  Part="1" 
F 0 "U2" H 6100 3500 50  0000 C CNN
F 1 "SN65HVD230" H 6300 3400 50  0000 C CNN
F 2 "Package_SO:SOIC-8_3.9x4.9mm_P1.27mm" H 6700 2550 50  0001 C CNN
F 3 "http://www.ti.com/lit/ds/symlink/sn65hvd230.pdf" H 6600 3450 50  0001 C CNN
	1    6700 3050
	1    0    0    -1  
$EndComp
$Comp
L Device:Jumper JP?
U 1 1 60658E37
P 7550 3800
AR Path="/60658E37" Ref="JP?"  Part="1" 
AR Path="/60650143/60658E37" Ref="JP1"  Part="1" 
F 0 "JP1" H 7550 4064 50  0000 C CNN
F 1 "TRM" H 7550 3973 50  0000 C CNN
F 2 "Jumper:SolderJumper-3_P1.3mm_Open_Pad1.0x1.5mm" H 7550 3800 50  0001 C CNN
F 3 "~" H 7550 3800 50  0001 C CNN
	1    7550 3800
	1    0    0    -1  
$EndComp
Wire Wire Line
	8250 3050 7850 3050
Wire Wire Line
	7100 3150 7250 3150
Wire Wire Line
	7250 3800 7250 3150
Connection ~ 7250 3150
Wire Wire Line
	7250 3150 8250 3150
$Comp
L Device:R R?
U 1 1 60658E42
P 7850 3500
AR Path="/60658E42" Ref="R?"  Part="1" 
AR Path="/60650143/60658E42" Ref="R53"  Part="1" 
F 0 "R53" H 7920 3546 50  0000 L CNN
F 1 "120" H 7920 3455 50  0000 L CNN
F 2 "" V 7780 3500 50  0001 C CNN
F 3 "~" H 7850 3500 50  0001 C CNN
	1    7850 3500
	1    0    0    -1  
$EndComp
Wire Wire Line
	7850 3350 7850 3050
Connection ~ 7850 3050
Wire Wire Line
	7850 3050 7100 3050
Wire Wire Line
	7850 3650 7850 3800
$Comp
L power:GND #PWR?
U 1 1 60658E4C
P 6700 3600
AR Path="/60658E4C" Ref="#PWR?"  Part="1" 
AR Path="/60650143/60658E4C" Ref="#PWR044"  Part="1" 
F 0 "#PWR044" H 6700 3350 50  0001 C CNN
F 1 "GND" H 6705 3427 50  0000 C CNN
F 2 "" H 6700 3600 50  0001 C CNN
F 3 "" H 6700 3600 50  0001 C CNN
	1    6700 3600
	1    0    0    -1  
$EndComp
$Comp
L power:+5VD #PWR?
U 1 1 60658E52
P 6700 2750
AR Path="/60658E52" Ref="#PWR?"  Part="1" 
AR Path="/60650143/60658E52" Ref="#PWR043"  Part="1" 
F 0 "#PWR043" H 6700 2600 50  0001 C CNN
F 1 "+5VD" H 6715 2923 50  0000 C CNN
F 2 "" H 6700 2750 50  0001 C CNN
F 3 "" H 6700 2750 50  0001 C CNN
	1    6700 2750
	1    0    0    -1  
$EndComp
$Comp
L Device:C C?
U 1 1 60658E58
P 3100 4100
AR Path="/60658E58" Ref="C?"  Part="1" 
AR Path="/60650143/60658E58" Ref="C3"  Part="1" 
F 0 "C3" H 3215 4146 50  0000 L CNN
F 1 "15p" H 3215 4055 50  0000 L CNN
F 2 "Capacitor_SMD:C_1206_3216Metric_Pad1.33x1.80mm_HandSolder" H 3138 3950 50  0001 C CNN
F 3 "~" H 3100 4100 50  0001 C CNN
	1    3100 4100
	1    0    0    -1  
$EndComp
Wire Wire Line
	2950 3750 3100 3750
Wire Wire Line
	2700 3750 2750 3750
Connection ~ 2700 3850
Wire Wire Line
	3100 3950 3100 3750
Connection ~ 3100 3750
Wire Wire Line
	3100 3750 3400 3750
$Comp
L Device:C C?
U 1 1 60658E64
P 2700 4100
AR Path="/60658E64" Ref="C?"  Part="1" 
AR Path="/60650143/60658E64" Ref="C1"  Part="1" 
F 0 "C1" H 2815 4146 50  0000 L CNN
F 1 "15p" H 2815 4055 50  0000 L CNN
F 2 "Capacitor_SMD:C_1206_3216Metric_Pad1.33x1.80mm_HandSolder" H 2738 3950 50  0001 C CNN
F 3 "~" H 2700 4100 50  0001 C CNN
	1    2700 4100
	1    0    0    -1  
$EndComp
Wire Wire Line
	2700 3950 2700 3850
Wire Wire Line
	2700 4250 2900 4250
Wire Wire Line
	2900 4350 2900 4250
Connection ~ 2900 4250
Wire Wire Line
	2900 4250 3100 4250
Text GLabel 4600 2950 2    50   Input ~ 0
RXCAN
Text GLabel 4600 3050 2    50   Input ~ 0
TXCAN
Text GLabel 6300 2950 0    50   Input ~ 0
TXCAN
Text GLabel 6300 3050 0    50   Input ~ 0
RXCAN
$Comp
L Device:C C?
U 1 1 60658E73
P 7150 2750
AR Path="/60658E73" Ref="C?"  Part="1" 
AR Path="/60650143/60658E73" Ref="C5"  Part="1" 
F 0 "C5" V 6898 2750 50  0000 C CNN
F 1 "C" V 6989 2750 50  0000 C CNN
F 2 "Capacitor_SMD:C_1206_3216Metric_Pad1.33x1.80mm_HandSolder" H 7188 2600 50  0001 C CNN
F 3 "~" H 7150 2750 50  0001 C CNN
	1    7150 2750
	0    1    1    0   
$EndComp
$Comp
L power:GND #PWR?
U 1 1 60658E79
P 7300 2750
AR Path="/60658E79" Ref="#PWR?"  Part="1" 
AR Path="/60650143/60658E79" Ref="#PWR045"  Part="1" 
F 0 "#PWR045" H 7300 2500 50  0001 C CNN
F 1 "GND" H 7305 2577 50  0000 C CNN
F 2 "" H 7300 2750 50  0001 C CNN
F 3 "" H 7300 2750 50  0001 C CNN
	1    7300 2750
	1    0    0    -1  
$EndComp
Wire Wire Line
	7000 2750 6700 2750
Connection ~ 6700 2750
$Comp
L Device:C C?
U 1 1 60658E81
P 4450 2700
AR Path="/60658E81" Ref="C?"  Part="1" 
AR Path="/60650143/60658E81" Ref="C4"  Part="1" 
F 0 "C4" V 4198 2700 50  0000 C CNN
F 1 "C" V 4289 2700 50  0000 C CNN
F 2 "Capacitor_SMD:C_1206_3216Metric_Pad1.33x1.80mm_HandSolder" H 4488 2550 50  0001 C CNN
F 3 "~" H 4450 2700 50  0001 C CNN
	1    4450 2700
	0    1    1    0   
$EndComp
Wire Wire Line
	4300 2700 4000 2700
Connection ~ 4000 2700
Wire Wire Line
	4000 2700 4000 2750
$Comp
L power:GND #PWR?
U 1 1 60658E8A
P 4600 2700
AR Path="/60658E8A" Ref="#PWR?"  Part="1" 
AR Path="/60650143/60658E8A" Ref="#PWR042"  Part="1" 
F 0 "#PWR042" H 4600 2450 50  0001 C CNN
F 1 "GND" H 4605 2527 50  0000 C CNN
F 2 "" H 4600 2700 50  0001 C CNN
F 3 "" H 4600 2700 50  0001 C CNN
	1    4600 2700
	1    0    0    -1  
$EndComp
$Comp
L Connector:Screw_Terminal_01x03 J?
U 1 1 60658E90
P 8450 3150
AR Path="/60658E90" Ref="J?"  Part="1" 
AR Path="/60650143/60658E90" Ref="J2"  Part="1" 
F 0 "J2" H 8530 3192 50  0000 L CNN
F 1 "CAN_BUS" H 8530 3101 50  0000 L CNN
F 2 "TerminalBlock_Phoenix:TerminalBlock_Phoenix_PT-1,5-3-3.5-H_1x03_P3.50mm_Horizontal" H 8450 3150 50  0001 C CNN
F 3 "~" H 8450 3150 50  0001 C CNN
	1    8450 3150
	1    0    0    -1  
$EndComp
$Comp
L power:GND #PWR?
U 1 1 60658E96
P 8250 3250
AR Path="/60658E96" Ref="#PWR?"  Part="1" 
AR Path="/60650143/60658E96" Ref="#PWR046"  Part="1" 
F 0 "#PWR046" H 8250 3000 50  0001 C CNN
F 1 "GND" H 8255 3077 50  0000 C CNN
F 2 "" H 8250 3250 50  0001 C CNN
F 3 "" H 8250 3250 50  0001 C CNN
	1    8250 3250
	1    0    0    -1  
$EndComp
$Comp
L Oscillator:TCXO-14 X1
U 1 1 6048BE73
P 2100 4000
F 0 "X1" H 1756 4046 50  0000 R CNN
F 1 "SG-615P" H 1756 3955 50  0000 R CNN
F 2 "Oscillator:Oscillator_SMD_Fordahl_DFAS1-6Pin_14.8x9.1mm" H 2550 3650 50  0001 C CNN
F 3 "http://www.golledge.com/pdf/products/tcxos/gtxos14.pdf" H 2000 4000 50  0001 C CNN
	1    2100 4000
	1    0    0    -1  
$EndComp
$Comp
L power:GND #PWR?
U 1 1 6048C7CE
P 2100 4350
AR Path="/6048C7CE" Ref="#PWR?"  Part="1" 
AR Path="/60650143/6048C7CE" Ref="#PWR0101"  Part="1" 
F 0 "#PWR0101" H 2100 4100 50  0001 C CNN
F 1 "GND" H 2105 4177 50  0000 C CNN
F 2 "" H 2100 4350 50  0001 C CNN
F 3 "" H 2100 4350 50  0001 C CNN
	1    2100 4350
	1    0    0    -1  
$EndComp
Wire Wire Line
	2100 4300 2100 4350
$Comp
L power:+5VA #PWR?
U 1 1 6048D30C
P 2100 3700
AR Path="/6048D30C" Ref="#PWR?"  Part="1" 
AR Path="/60650143/6048D30C" Ref="#PWR0102"  Part="1" 
F 0 "#PWR0102" H 2100 3550 50  0001 C CNN
F 1 "+5VA" H 2115 3873 50  0000 C CNN
F 2 "" H 2100 3700 50  0001 C CNN
F 3 "" H 2100 3700 50  0001 C CNN
	1    2100 3700
	1    0    0    -1  
$EndComp
$Comp
L Device:R R?
U 1 1 604922BC
P 5550 3100
AR Path="/604922BC" Ref="R?"  Part="1" 
AR Path="/60650143/604922BC" Ref="R55"  Part="1" 
F 0 "R55" H 5620 3146 50  0000 L CNN
F 1 "120" H 5620 3055 50  0000 L CNN
F 2 "" V 5480 3100 50  0001 C CNN
F 3 "~" H 5550 3100 50  0001 C CNN
	1    5550 3100
	1    0    0    -1  
$EndComp
$Comp
L Device:R R?
U 1 1 604925EB
P 5550 3400
AR Path="/604925EB" Ref="R?"  Part="1" 
AR Path="/60650143/604925EB" Ref="R56"  Part="1" 
F 0 "R56" H 5620 3446 50  0000 L CNN
F 1 "120" H 5620 3355 50  0000 L CNN
F 2 "" V 5480 3400 50  0001 C CNN
F 3 "~" H 5550 3400 50  0001 C CNN
	1    5550 3400
	1    0    0    -1  
$EndComp
Wire Wire Line
	5550 3250 6300 3250
Connection ~ 5550 3250
Wire Wire Line
	6700 3600 6700 3450
$Comp
L power:GND #PWR?
U 1 1 6049390D
P 5550 3600
AR Path="/6049390D" Ref="#PWR?"  Part="1" 
AR Path="/60650143/6049390D" Ref="#PWR0103"  Part="1" 
F 0 "#PWR0103" H 5550 3350 50  0001 C CNN
F 1 "GND" H 5555 3427 50  0000 C CNN
F 2 "" H 5550 3600 50  0001 C CNN
F 3 "" H 5550 3600 50  0001 C CNN
	1    5550 3600
	1    0    0    -1  
$EndComp
Wire Wire Line
	5550 3600 5550 3550
Wire Wire Line
	5550 2950 5550 2750
$Comp
L power:+5VD #PWR?
U 1 1 60494F20
P 5550 2750
AR Path="/60494F20" Ref="#PWR?"  Part="1" 
AR Path="/60650143/60494F20" Ref="#PWR0104"  Part="1" 
F 0 "#PWR0104" H 5550 2600 50  0001 C CNN
F 1 "+5VD" H 5565 2923 50  0000 C CNN
F 2 "" H 5550 2750 50  0001 C CNN
F 3 "" H 5550 2750 50  0001 C CNN
	1    5550 2750
	1    0    0    -1  
$EndComp
$EndSCHEMATC
