EESchema Schematic File Version 4
EELAYER 30 0
EELAYER END
$Descr A4 11693 8268
encoding utf-8
Sheet 2 6
Title ""
Date ""
Rev ""
Comp ""
Comment1 ""
Comment2 ""
Comment3 ""
Comment4 ""
$EndDescr
$Comp
L Device:Q_NMOS_DGS Q?
U 1 1 604FF231
P 1950 2150
AR Path="/604FF231" Ref="Q?"  Part="1" 
AR Path="/604E1E00/604FF231" Ref="Q2"  Part="1" 
F 0 "Q2" H 2154 2196 50  0000 L CNN
F 1 "IRLML6346" H 2154 2105 50  0000 L CNN
F 2 "Package_TO_SOT_SMD:SOT-23" H 2150 2250 50  0001 C CNN
F 3 "~" H 1950 2150 50  0001 C CNN
	1    1950 2150
	1    0    0    -1  
$EndComp
$Comp
L Device:R R?
U 1 1 604FF237
P 1650 2300
AR Path="/604FF237" Ref="R?"  Part="1" 
AR Path="/604E1E00/604FF237" Ref="R7"  Part="1" 
F 0 "R7" H 1720 2346 50  0000 L CNN
F 1 "1k" H 1720 2255 50  0000 L CNN
F 2 "Resistor_SMD:R_1206_3216Metric" V 1580 2300 50  0001 C CNN
F 3 "~" H 1650 2300 50  0001 C CNN
	1    1650 2300
	1    0    0    -1  
$EndComp
$Comp
L Device:R R?
U 1 1 604FF23D
P 1400 2150
AR Path="/604FF23D" Ref="R?"  Part="1" 
AR Path="/604E1E00/604FF23D" Ref="R6"  Part="1" 
F 0 "R6" H 1470 2196 50  0000 L CNN
F 1 "1k5" H 1470 2105 50  0000 L CNN
F 2 "Resistor_SMD:R_1206_3216Metric" V 1330 2150 50  0001 C CNN
F 3 "~" H 1400 2150 50  0001 C CNN
	1    1400 2150
	0    1    1    0   
$EndComp
Wire Wire Line
	1550 2150 1650 2150
Wire Wire Line
	2050 2450 2050 2350
$Comp
L power:GND #PWR?
U 1 1 604FF247
P 2050 2450
AR Path="/604FF247" Ref="#PWR?"  Part="1" 
AR Path="/604E1E00/604FF247" Ref="#PWR02"  Part="1" 
F 0 "#PWR02" H 2050 2200 50  0001 C CNN
F 1 "GND" H 2055 2277 50  0000 C CNN
F 2 "" H 2050 2450 50  0001 C CNN
F 3 "" H 2050 2450 50  0001 C CNN
	1    2050 2450
	1    0    0    -1  
$EndComp
Connection ~ 2050 2450
$Comp
L Device:R R?
U 1 1 604FF24E
P 1650 1150
AR Path="/604FF24E" Ref="R?"  Part="1" 
AR Path="/604E1E00/604FF24E" Ref="R8"  Part="1" 
F 0 "R8" H 1720 1196 50  0000 L CNN
F 1 "820" H 1720 1105 50  0000 L CNN
F 2 "Resistor_SMD:R_1206_3216Metric" V 1580 1150 50  0001 C CNN
F 3 "~" H 1650 1150 50  0001 C CNN
	1    1650 1150
	1    0    0    -1  
$EndComp
$Comp
L power:+3V3 #PWR?
U 1 1 604FF254
P 2050 900
AR Path="/604FF254" Ref="#PWR?"  Part="1" 
AR Path="/604E1E00/604FF254" Ref="#PWR01"  Part="1" 
F 0 "#PWR01" H 2050 750 50  0001 C CNN
F 1 "+3V3" H 2065 1073 50  0000 C CNN
F 2 "" H 2050 900 50  0001 C CNN
F 3 "" H 2050 900 50  0001 C CNN
	1    2050 900 
	1    0    0    -1  
$EndComp
Text GLabel 1250 2150 0    50   Input ~ 0
IN0
Text GLabel 2200 1900 2    50   Input ~ 0
OUT0
Wire Wire Line
	2200 1900 2050 1900
Wire Wire Line
	2050 1900 2050 1950
Connection ~ 1650 2150
Wire Wire Line
	1650 2150 1750 2150
Wire Wire Line
	1650 2450 2050 2450
$Comp
L Device:R R?
U 1 1 605171B7
P 2050 1150
AR Path="/605171B7" Ref="R?"  Part="1" 
AR Path="/604E1E00/605171B7" Ref="R9"  Part="1" 
F 0 "R9" H 2120 1196 50  0000 L CNN
F 1 "47" H 2120 1105 50  0000 L CNN
F 2 "Resistor_SMD:R_1206_3216Metric" V 1980 1150 50  0001 C CNN
F 3 "~" H 2050 1150 50  0001 C CNN
	1    2050 1150
	1    0    0    -1  
$EndComp
$Comp
L Device:LED D1
U 1 1 60519EF2
P 2050 1450
F 0 "D1" V 2089 1332 50  0000 R CNN
F 1 "KP-3216SURCK" V 1998 1332 50  0000 R CNN
F 2 "LED_SMD:LED_1206_3216Metric_Pad1.42x1.75mm_HandSolder" H 2050 1450 50  0001 C CNN
F 3 "~" H 2050 1450 50  0001 C CNN
	1    2050 1450
	0    -1   -1   0   
$EndComp
Wire Wire Line
	1650 1700 2050 1700
Wire Wire Line
	2050 1600 2050 1700
Wire Wire Line
	2050 1700 2050 1900
Connection ~ 2050 1700
Connection ~ 2050 1900
Wire Wire Line
	1650 1300 1650 1700
Wire Wire Line
	1650 1000 2050 1000
Connection ~ 2050 1000
Wire Wire Line
	2050 900  2050 1000
$Comp
L Device:Q_NMOS_DGS Q?
U 1 1 606053A2
P 3550 2150
AR Path="/606053A2" Ref="Q?"  Part="1" 
AR Path="/604E1E00/606053A2" Ref="Q10"  Part="1" 
F 0 "Q10" H 3754 2196 50  0000 L CNN
F 1 "IRLML6346" H 3754 2105 50  0000 L CNN
F 2 "Package_TO_SOT_SMD:SOT-23" H 3750 2250 50  0001 C CNN
F 3 "~" H 3550 2150 50  0001 C CNN
	1    3550 2150
	1    0    0    -1  
$EndComp
$Comp
L Device:R R?
U 1 1 606053A8
P 3250 2300
AR Path="/606053A8" Ref="R?"  Part="1" 
AR Path="/604E1E00/606053A8" Ref="R40"  Part="1" 
F 0 "R40" H 3320 2346 50  0000 L CNN
F 1 "1k" H 3320 2255 50  0000 L CNN
F 2 "Resistor_SMD:R_1206_3216Metric" V 3180 2300 50  0001 C CNN
F 3 "~" H 3250 2300 50  0001 C CNN
	1    3250 2300
	1    0    0    -1  
$EndComp
$Comp
L Device:R R?
U 1 1 606053AE
P 3000 2150
AR Path="/606053AE" Ref="R?"  Part="1" 
AR Path="/604E1E00/606053AE" Ref="R38"  Part="1" 
F 0 "R38" H 3070 2196 50  0000 L CNN
F 1 "1k5" H 3070 2105 50  0000 L CNN
F 2 "Resistor_SMD:R_1206_3216Metric" V 2930 2150 50  0001 C CNN
F 3 "~" H 3000 2150 50  0001 C CNN
	1    3000 2150
	0    1    1    0   
$EndComp
Wire Wire Line
	3150 2150 3250 2150
Wire Wire Line
	3650 2450 3650 2350
$Comp
L power:GND #PWR?
U 1 1 606053B6
P 3650 2450
AR Path="/606053B6" Ref="#PWR?"  Part="1" 
AR Path="/604E1E00/606053B6" Ref="#PWR027"  Part="1" 
F 0 "#PWR027" H 3650 2200 50  0001 C CNN
F 1 "GND" H 3655 2277 50  0000 C CNN
F 2 "" H 3650 2450 50  0001 C CNN
F 3 "" H 3650 2450 50  0001 C CNN
	1    3650 2450
	1    0    0    -1  
$EndComp
Connection ~ 3650 2450
$Comp
L Device:R R?
U 1 1 606053BD
P 3250 1150
AR Path="/606053BD" Ref="R?"  Part="1" 
AR Path="/604E1E00/606053BD" Ref="R39"  Part="1" 
F 0 "R39" H 3320 1196 50  0000 L CNN
F 1 "820" H 3320 1105 50  0000 L CNN
F 2 "Resistor_SMD:R_1206_3216Metric" V 3180 1150 50  0001 C CNN
F 3 "~" H 3250 1150 50  0001 C CNN
	1    3250 1150
	1    0    0    -1  
$EndComp
$Comp
L power:+3V3 #PWR?
U 1 1 606053C3
P 3650 900
AR Path="/606053C3" Ref="#PWR?"  Part="1" 
AR Path="/604E1E00/606053C3" Ref="#PWR026"  Part="1" 
F 0 "#PWR026" H 3650 750 50  0001 C CNN
F 1 "+3V3" H 3665 1073 50  0000 C CNN
F 2 "" H 3650 900 50  0001 C CNN
F 3 "" H 3650 900 50  0001 C CNN
	1    3650 900 
	1    0    0    -1  
$EndComp
Text GLabel 2850 2150 0    50   Input ~ 0
IN1
Text GLabel 3800 1900 2    50   Input ~ 0
OUT1
Wire Wire Line
	3800 1900 3650 1900
Wire Wire Line
	3650 1900 3650 1950
Connection ~ 3250 2150
Wire Wire Line
	3250 2150 3350 2150
Wire Wire Line
	3250 2450 3650 2450
$Comp
L Device:R R?
U 1 1 606053D0
P 3650 1150
AR Path="/606053D0" Ref="R?"  Part="1" 
AR Path="/604E1E00/606053D0" Ref="R41"  Part="1" 
F 0 "R41" H 3720 1196 50  0000 L CNN
F 1 "47" H 3720 1105 50  0000 L CNN
F 2 "Resistor_SMD:R_1206_3216Metric" V 3580 1150 50  0001 C CNN
F 3 "~" H 3650 1150 50  0001 C CNN
	1    3650 1150
	1    0    0    -1  
$EndComp
$Comp
L Device:LED D19
U 1 1 606053D6
P 3650 1450
F 0 "D19" V 3689 1332 50  0000 R CNN
F 1 "KP-3216SURCK" V 3598 1332 50  0000 R CNN
F 2 "LED_SMD:LED_1206_3216Metric_Pad1.42x1.75mm_HandSolder" H 3650 1450 50  0001 C CNN
F 3 "~" H 3650 1450 50  0001 C CNN
	1    3650 1450
	0    -1   -1   0   
$EndComp
Wire Wire Line
	3250 1700 3650 1700
Wire Wire Line
	3650 1600 3650 1700
Wire Wire Line
	3650 1700 3650 1900
Connection ~ 3650 1700
Connection ~ 3650 1900
Wire Wire Line
	3250 1300 3250 1700
Wire Wire Line
	3250 1000 3650 1000
Connection ~ 3650 1000
Wire Wire Line
	3650 900  3650 1000
$Comp
L Device:Q_NMOS_DGS Q?
U 1 1 6060F851
P 5150 2150
AR Path="/6060F851" Ref="Q?"  Part="1" 
AR Path="/604E1E00/6060F851" Ref="Q11"  Part="1" 
F 0 "Q11" H 5354 2196 50  0000 L CNN
F 1 "IRLML6346" H 5354 2105 50  0000 L CNN
F 2 "Package_TO_SOT_SMD:SOT-23" H 5350 2250 50  0001 C CNN
F 3 "~" H 5150 2150 50  0001 C CNN
	1    5150 2150
	1    0    0    -1  
$EndComp
$Comp
L Device:R R?
U 1 1 6060F857
P 4850 2300
AR Path="/6060F857" Ref="R?"  Part="1" 
AR Path="/604E1E00/6060F857" Ref="R44"  Part="1" 
F 0 "R44" H 4920 2346 50  0000 L CNN
F 1 "1k" H 4920 2255 50  0000 L CNN
F 2 "Resistor_SMD:R_1206_3216Metric" V 4780 2300 50  0001 C CNN
F 3 "~" H 4850 2300 50  0001 C CNN
	1    4850 2300
	1    0    0    -1  
$EndComp
$Comp
L Device:R R?
U 1 1 6060F85D
P 4600 2150
AR Path="/6060F85D" Ref="R?"  Part="1" 
AR Path="/604E1E00/6060F85D" Ref="R42"  Part="1" 
F 0 "R42" H 4670 2196 50  0000 L CNN
F 1 "1k5" H 4670 2105 50  0000 L CNN
F 2 "Resistor_SMD:R_1206_3216Metric" V 4530 2150 50  0001 C CNN
F 3 "~" H 4600 2150 50  0001 C CNN
	1    4600 2150
	0    1    1    0   
$EndComp
Wire Wire Line
	4750 2150 4850 2150
Wire Wire Line
	5250 2450 5250 2350
$Comp
L power:GND #PWR?
U 1 1 6060F865
P 5250 2450
AR Path="/6060F865" Ref="#PWR?"  Part="1" 
AR Path="/604E1E00/6060F865" Ref="#PWR029"  Part="1" 
F 0 "#PWR029" H 5250 2200 50  0001 C CNN
F 1 "GND" H 5255 2277 50  0000 C CNN
F 2 "" H 5250 2450 50  0001 C CNN
F 3 "" H 5250 2450 50  0001 C CNN
	1    5250 2450
	1    0    0    -1  
$EndComp
Connection ~ 5250 2450
$Comp
L Device:R R?
U 1 1 6060F86C
P 4850 1150
AR Path="/6060F86C" Ref="R?"  Part="1" 
AR Path="/604E1E00/6060F86C" Ref="R43"  Part="1" 
F 0 "R43" H 4920 1196 50  0000 L CNN
F 1 "820" H 4920 1105 50  0000 L CNN
F 2 "Resistor_SMD:R_1206_3216Metric" V 4780 1150 50  0001 C CNN
F 3 "~" H 4850 1150 50  0001 C CNN
	1    4850 1150
	1    0    0    -1  
$EndComp
$Comp
L power:+3V3 #PWR?
U 1 1 6060F872
P 5250 900
AR Path="/6060F872" Ref="#PWR?"  Part="1" 
AR Path="/604E1E00/6060F872" Ref="#PWR028"  Part="1" 
F 0 "#PWR028" H 5250 750 50  0001 C CNN
F 1 "+3V3" H 5265 1073 50  0000 C CNN
F 2 "" H 5250 900 50  0001 C CNN
F 3 "" H 5250 900 50  0001 C CNN
	1    5250 900 
	1    0    0    -1  
$EndComp
Text GLabel 4450 2150 0    50   Input ~ 0
IN2
Text GLabel 5400 1900 2    50   Input ~ 0
OUT2
Wire Wire Line
	5400 1900 5250 1900
Wire Wire Line
	5250 1900 5250 1950
Connection ~ 4850 2150
Wire Wire Line
	4850 2150 4950 2150
Wire Wire Line
	4850 2450 5250 2450
$Comp
L Device:R R?
U 1 1 6060F87F
P 5250 1150
AR Path="/6060F87F" Ref="R?"  Part="1" 
AR Path="/604E1E00/6060F87F" Ref="R45"  Part="1" 
F 0 "R45" H 5320 1196 50  0000 L CNN
F 1 "47" H 5320 1105 50  0000 L CNN
F 2 "Resistor_SMD:R_1206_3216Metric" V 5180 1150 50  0001 C CNN
F 3 "~" H 5250 1150 50  0001 C CNN
	1    5250 1150
	1    0    0    -1  
$EndComp
$Comp
L Device:LED D20
U 1 1 6060F885
P 5250 1450
F 0 "D20" V 5289 1332 50  0000 R CNN
F 1 "KP-3216SURCK" V 5198 1332 50  0000 R CNN
F 2 "LED_SMD:LED_1206_3216Metric_Pad1.42x1.75mm_HandSolder" H 5250 1450 50  0001 C CNN
F 3 "~" H 5250 1450 50  0001 C CNN
	1    5250 1450
	0    -1   -1   0   
$EndComp
Wire Wire Line
	4850 1700 5250 1700
Wire Wire Line
	5250 1600 5250 1700
Wire Wire Line
	5250 1700 5250 1900
Connection ~ 5250 1700
Connection ~ 5250 1900
Wire Wire Line
	4850 1300 4850 1700
Wire Wire Line
	4850 1000 5250 1000
Connection ~ 5250 1000
Wire Wire Line
	5250 900  5250 1000
$Comp
L Device:Q_NMOS_DGS Q?
U 1 1 6060F894
P 6750 2150
AR Path="/6060F894" Ref="Q?"  Part="1" 
AR Path="/604E1E00/6060F894" Ref="Q12"  Part="1" 
F 0 "Q12" H 6954 2196 50  0000 L CNN
F 1 "IRLML6346" H 6954 2105 50  0000 L CNN
F 2 "Package_TO_SOT_SMD:SOT-23" H 6950 2250 50  0001 C CNN
F 3 "~" H 6750 2150 50  0001 C CNN
	1    6750 2150
	1    0    0    -1  
$EndComp
$Comp
L Device:R R?
U 1 1 6060F89A
P 6450 2300
AR Path="/6060F89A" Ref="R?"  Part="1" 
AR Path="/604E1E00/6060F89A" Ref="R48"  Part="1" 
F 0 "R48" H 6520 2346 50  0000 L CNN
F 1 "1k" H 6520 2255 50  0000 L CNN
F 2 "Resistor_SMD:R_1206_3216Metric" V 6380 2300 50  0001 C CNN
F 3 "~" H 6450 2300 50  0001 C CNN
	1    6450 2300
	1    0    0    -1  
$EndComp
$Comp
L Device:R R?
U 1 1 6060F8A0
P 6200 2150
AR Path="/6060F8A0" Ref="R?"  Part="1" 
AR Path="/604E1E00/6060F8A0" Ref="R46"  Part="1" 
F 0 "R46" H 6270 2196 50  0000 L CNN
F 1 "1k5" H 6270 2105 50  0000 L CNN
F 2 "Resistor_SMD:R_1206_3216Metric" V 6130 2150 50  0001 C CNN
F 3 "~" H 6200 2150 50  0001 C CNN
	1    6200 2150
	0    1    1    0   
$EndComp
Wire Wire Line
	6350 2150 6450 2150
Wire Wire Line
	6850 2450 6850 2350
$Comp
L power:GND #PWR?
U 1 1 6060F8A8
P 6850 2450
AR Path="/6060F8A8" Ref="#PWR?"  Part="1" 
AR Path="/604E1E00/6060F8A8" Ref="#PWR031"  Part="1" 
F 0 "#PWR031" H 6850 2200 50  0001 C CNN
F 1 "GND" H 6855 2277 50  0000 C CNN
F 2 "" H 6850 2450 50  0001 C CNN
F 3 "" H 6850 2450 50  0001 C CNN
	1    6850 2450
	1    0    0    -1  
$EndComp
Connection ~ 6850 2450
$Comp
L Device:R R?
U 1 1 6060F8AF
P 6450 1150
AR Path="/6060F8AF" Ref="R?"  Part="1" 
AR Path="/604E1E00/6060F8AF" Ref="R47"  Part="1" 
F 0 "R47" H 6520 1196 50  0000 L CNN
F 1 "820" H 6520 1105 50  0000 L CNN
F 2 "Resistor_SMD:R_1206_3216Metric" V 6380 1150 50  0001 C CNN
F 3 "~" H 6450 1150 50  0001 C CNN
	1    6450 1150
	1    0    0    -1  
$EndComp
$Comp
L power:+3V3 #PWR?
U 1 1 6060F8B5
P 6850 900
AR Path="/6060F8B5" Ref="#PWR?"  Part="1" 
AR Path="/604E1E00/6060F8B5" Ref="#PWR030"  Part="1" 
F 0 "#PWR030" H 6850 750 50  0001 C CNN
F 1 "+3V3" H 6865 1073 50  0000 C CNN
F 2 "" H 6850 900 50  0001 C CNN
F 3 "" H 6850 900 50  0001 C CNN
	1    6850 900 
	1    0    0    -1  
$EndComp
Text GLabel 6050 2150 0    50   Input ~ 0
IN3
Text GLabel 7000 1900 2    50   Input ~ 0
OUT3
Wire Wire Line
	7000 1900 6850 1900
Wire Wire Line
	6850 1900 6850 1950
Connection ~ 6450 2150
Wire Wire Line
	6450 2150 6550 2150
Wire Wire Line
	6450 2450 6850 2450
$Comp
L Device:R R?
U 1 1 6060F8C2
P 6850 1150
AR Path="/6060F8C2" Ref="R?"  Part="1" 
AR Path="/604E1E00/6060F8C2" Ref="R49"  Part="1" 
F 0 "R49" H 6920 1196 50  0000 L CNN
F 1 "47" H 6920 1105 50  0000 L CNN
F 2 "Resistor_SMD:R_1206_3216Metric" V 6780 1150 50  0001 C CNN
F 3 "~" H 6850 1150 50  0001 C CNN
	1    6850 1150
	1    0    0    -1  
$EndComp
$Comp
L Device:LED D21
U 1 1 6060F8C8
P 6850 1450
F 0 "D21" V 6889 1332 50  0000 R CNN
F 1 "KP-3216SURCK" V 6798 1332 50  0000 R CNN
F 2 "LED_SMD:LED_1206_3216Metric_Pad1.42x1.75mm_HandSolder" H 6850 1450 50  0001 C CNN
F 3 "~" H 6850 1450 50  0001 C CNN
	1    6850 1450
	0    -1   -1   0   
$EndComp
Wire Wire Line
	6450 1700 6850 1700
Wire Wire Line
	6850 1600 6850 1700
Wire Wire Line
	6850 1700 6850 1900
Connection ~ 6850 1700
Connection ~ 6850 1900
Wire Wire Line
	6450 1300 6450 1700
Wire Wire Line
	6450 1000 6850 1000
Connection ~ 6850 1000
Wire Wire Line
	6850 900  6850 1000
$Comp
L Connector:Screw_Terminal_01x06 J4
U 1 1 60621C1C
P 10100 2150
F 0 "J4" H 10180 2142 50  0000 L CNN
F 1 "DI0-3" H 10180 2051 50  0000 L CNN
F 2 "TerminalBlock_Phoenix:TerminalBlock_Phoenix_PT-1,5-6-3.5-H_1x06_P3.50mm_Horizontal" H 10100 2150 50  0001 C CNN
F 3 "~" H 10100 2150 50  0001 C CNN
	1    10100 2150
	1    0    0    -1  
$EndComp
Text GLabel 9900 2250 0    50   Input ~ 0
IN3
Text GLabel 9900 2150 0    50   Input ~ 0
IN2
Text GLabel 9900 2050 0    50   Input ~ 0
IN1
Text GLabel 9900 1950 0    50   Input ~ 0
IN0
$Comp
L power:+24V #PWR032
U 1 1 6062424A
P 8800 1000
F 0 "#PWR032" H 8800 850 50  0001 C CNN
F 1 "+24V" H 8815 1173 50  0000 C CNN
F 2 "" H 8800 1000 50  0001 C CNN
F 3 "" H 8800 1000 50  0001 C CNN
	1    8800 1000
	1    0    0    -1  
$EndComp
Text GLabel 8650 1100 0    50   Input ~ 0
24V
Wire Wire Line
	8650 1100 8800 1100
Wire Wire Line
	8800 1100 8800 1000
Text GLabel 8650 1200 0    50   Input ~ 0
GND
$Comp
L power:GND #PWR033
U 1 1 60625C9B
P 8800 1300
F 0 "#PWR033" H 8800 1050 50  0001 C CNN
F 1 "GND" H 8805 1127 50  0000 C CNN
F 2 "" H 8800 1300 50  0001 C CNN
F 3 "" H 8800 1300 50  0001 C CNN
	1    8800 1300
	1    0    0    -1  
$EndComp
Wire Wire Line
	8650 1200 8800 1200
Wire Wire Line
	8800 1200 8800 1300
Text GLabel 9900 2350 0    50   Input ~ 0
GND
Text GLabel 9900 2450 0    50   Input ~ 0
24V
$EndSCHEMATC
